1	[1028:1.0,1025:1.0,1016:1.0,1014:1.0,1011:1.0,988:1.0,930:1.0,928:1.0,926:1.0,919:1.0]
2	[882:1.0,9:1.0,546:1.0,11:1.0,531:1.0,527:1.0,523:1.0,515:1.0,514:1.0,86:1.0]
3	[1:1.0,895:1.0,554:1.0,550:1.0,9:1.0,546:1.0,538:1.0,11:1.0,531:1.0,527:1.0]
4	[880:1.0,550:1.0,9:1.0,546:1.0,538:1.0,514:1.0,508:1.0,496:1.0,71:1.0,483:1.0]
5	[1028:1.0,1016:1.0,988:1.0,928:1.0,926:1.0,877:1.0,866:1.0,860:1.0,859:1.0,854:1.0]
6	[1047:1.0,1028:1.0,1016:1.0,1012:1.0,1011:1.0,988:1.0,895:1.0,887:1.0,880:1.0,879:1.0]
7	[1047:1.0,1028:1.0,1025:1.0,1016:1.0,1011:1.0,988:1.0,937:1.0,928:1.0,919:1.0,895:1.0]
8	[9:1.0,546:1.0,25:1.0,527:1.0,31:1.0,523:1.0,515:1.0,514:1.0,508:1.0,498:1.0]
9	[550:1.0,9:1.0,546:1.0,11:1.0,523:1.0,520:1.0,515:1.0,514:1.0,511:1.0,508:1.0]
10	[879:1.0,845:1.0,751:1.0,750:1.0,748:1.0,746:1.0,742:1.0,739:1.0,735:1.0,732:1.0]
11	[1028:1.0,1016:1.0,1011:1.0,928:1.0,919:1.0,895:1.0,887:1.0,879:1.0,873:1.0,855:1.0]
12	[2:1.0,550:1.0,9:1.0,546:1.0,288:1.0,11:1.0,25:1.0,529:1.0,527:1.0,31:1.0]
13	[1228:1.0,1062:1.0,1047:1.0,1028:1.0,1025:1.0,1022:1.0,1016:1.0,1014:1.0,1012:1.0,1011:1.0]
14	[1028:1.0,879:1.0,866:1.0,763:1.0,756:1.0,751:1.0,748:1.0,742:1.0,739:1.0,735:1.0]
15	[1028:1.0,1016:1.0,1014:1.0,1011:1.0,1009:1.0,995:1.0,989:1.0,988:1.0,919:1.0,895:1.0]
16	[1028:1.0,879:1.0,845:1.0,763:1.0,751:1.0,748:1.0,746:1.0,742:1.0,739:1.0,690:1.0]
17	[751:1.0,546:1.0,566:1.0,568:1.0,288:1.0,582:1.0,515:1.0,514:1.0,496:1.0,71:1.0]
18	[1028:1.0,919:1.0,866:1.0,855:1.0,763:1.0,756:1.0,750:1.0,748:1.0,742:1.0,690:1.0]
19	[742:1.0,550:1.0,546:1.0,566:1.0,11:1.0,527:1.0,523:1.0,514:1.0,511:1.0,508:1.0]
20	[748:1.0,550:1.0,9:1.0,546:1.0,7:1.0,527:1.0,523:1.0,514:1.0,511:1.0,508:1.0]
21	[8:1.0,1028:1.0,1025:1.0,1016:1.0,1014:1.0,1013:1.0,1012:1.0,1011:1.0,937:1.0,926:1.0]
22	[1028:1.0,1016:1.0,940:1.0,930:1.0,928:1.0,895:1.0,880:1.0,879:1.0,877:1.0,876:1.0]
23	[1028:1.0,1016:1.0,845:1.0,751:1.0,750:1.0,748:1.0,746:1.0,742:1.0,735:1.0,732:1.0]
24	[2:1.0,550:1.0,546:1.0,527:1.0,31:1.0,515:1.0,514:1.0,511:1.0,498:1.0,496:1.0]
25	[550:1.0,9:1.0,546:1.0,11:1.0,531:1.0,526:1.0,523:1.0,521:1.0,515:1.0,514:1.0]
26	[550:1.0,11:1.0,531:1.0,527:1.0,514:1.0,496:1.0,1047:1.0,71:1.0,483:1.0,480:1.0]
27	[748:1.0,546:1.0,566:1.0,11:1.0,527:1.0,31:1.0,496:1.0,1047:1.0,71:1.0,483:1.0]
28	[2:1.0,554:1.0,4:1.0,550:1.0,9:1.0,546:1.0,25:1.0,527:1.0,526:1.0,523:1.0]
29	[9:1.0,546:1.0,288:1.0,11:1.0,25:1.0,527:1.0,523:1.0,520:1.0,515:1.0,514:1.0]
30	[895:1.0,550:1.0,9:1.0,546:1.0,11:1.0,527:1.0,31:1.0,288:1.0,515:1.0,514:1.0]
31	[9:1.0,546:1.0,288:1.0,11:1.0,25:1.0,531:1.0,529:1.0,528:1.0,527:1.0,526:1.0]
32	[678:1.0,546:1.0,566:1.0,568:1.0,496:1.0,1047:1.0,71:1.0,483:1.0,476:1.0,472:1.0]
33	[546:1.0,568:1.0,845:1.0,508:1.0,71:1.0,315:1.0,319:1.0,475:1.0,472:1.0,471:1.0]
34	[748:1.0,546:1.0,566:1.0,568:1.0,538:1.0,515:1.0,508:1.0,483:1.0,628:1.0,319:1.0]
35	[890:1.0,546:1.0,288:1.0,11:1.0,515:1.0,508:1.0,315:1.0,628:1.0,319:1.0,475:1.0]
36	[546:1.0,568:1.0,845:1.0,515:1.0,508:1.0,483:1.0,628:1.0,475:1.0,471:1.0,876:1.0]
37	[554:1.0,2:1.0,9:1.0,527:1.0,31:1.0,515:1.0,508:1.0,496:1.0,1047:1.0,71:1.0]
38	[988:1.0,930:1.0,928:1.0,926:1.0,895:1.0,879:1.0,873:1.0,866:1.0,845:1.0,831:1.0]
39	[751:1.0,546:1.0,568:1.0,582:1.0,515:1.0,514:1.0,511:1.0,508:1.0,483:1.0,628:1.0]
40	[546:1.0,568:1.0,288:1.0,515:1.0,514:1.0,508:1.0,71:1.0,315:1.0,483:1.0,480:1.0]
41	[690:1.0,550:1.0,9:1.0,546:1.0,568:1.0,25:1.0,527:1.0,526:1.0,523:1.0,588:1.0]
42	[1016:1.0,944:1.0,928:1.0,831:1.0,825:1.0,820:1.0,815:1.0,763:1.0,762:1.0,748:1.0]
43	[1028:1.0,1016:1.0,934:1.0,928:1.0,895:1.0,790:1.0,763:1.0,762:1.0,750:1.0,748:1.0]
44	[1028:1.0,1016:1.0,928:1.0,879:1.0,866:1.0,845:1.0,763:1.0,751:1.0,750:1.0,748:1.0]
45	[739:1.0,550:1.0,546:1.0,566:1.0,11:1.0,527:1.0,31:1.0,515:1.0,508:1.0,496:1.0]
46	[902:1.0,9:1.0,546:1.0,11:1.0,515:1.0,508:1.0,496:1.0,71:1.0,315:1.0,483:1.0]
47	[751:1.0,546:1.0,11:1.0,515:1.0,514:1.0,508:1.0,71:1.0,483:1.0,479:1.0,475:1.0]
48	[890:1.0,550:1.0,9:1.0,546:1.0,11:1.0,25:1.0,526:1.0,521:1.0,520:1.0,515:1.0]
49	[1016:1.0,1011:1.0,1010:1.0,31:1.0,1007:1.0,33:1.0,28:1.0,32:1.0,900:1.0,895:1.0]
50	[748:1.0,546:1.0,568:1.0,515:1.0,496:1.0,1047:1.0,483:1.0,628:1.0,479:1.0,476:1.0]
51	[739:1.0,2:1.0,550:1.0,9:1.0,546:1.0,568:1.0,527:1.0,31:1.0,514:1.0,511:1.0]
52	[9:1.0,546:1.0,11:1.0,31:1.0,515:1.0,514:1.0,511:1.0,508:1.0,496:1.0,1047:1.0]
53	[739:1.0,550:1.0,9:1.0,527:1.0,508:1.0,496:1.0,1047:1.0,71:1.0,483:1.0,476:1.0]
54	[831:1.0,550:1.0,9:1.0,11:1.0,527:1.0,31:1.0,515:1.0,508:1.0,496:1.0,1047:1.0]
55	[742:1.0,550:1.0,546:1.0,566:1.0,11:1.0,527:1.0,588:1.0,508:1.0,496:1.0,1047:1.0]
56	[1016:1.0,928:1.0,926:1.0,879:1.0,866:1.0,845:1.0,790:1.0,780:1.0,763:1.0,762:1.0]
57	[1014:1.0,928:1.0,895:1.0,880:1.0,879:1.0,824:1.0,815:1.0,762:1.0,751:1.0,750:1.0]
58	[1028:1.0,1047:1.0,1016:1.0,1014:1.0,1011:1.0,921:1.0,919:1.0,898:1.0,895:1.0,882:1.0]
59	[8:1.0,1016:1.0,1011:1.0,988:1.0,879:1.0,864:1.0,847:1.0,831:1.0,820:1.0,815:1.0]
60	[1028:1.0,879:1.0,855:1.0,845:1.0,763:1.0,756:1.0,750:1.0,748:1.0,746:1.0,742:1.0]
61	[628:1.0,546:1.0,288:1.0,11:1.0,515:1.0,508:1.0,319:1.0,475:1.0,471:1.0,322:1.0]
62	[1011:1.0,38:1.0,79:1.0,92:1.0,93:1.0,94:1.0,95:1.0,928:1.0,919:1.0,879:1.0]
63	[1016:1.0,1014:1.0,928:1.0,919:1.0,887:1.0,879:1.0,866:1.0,845:1.0,831:1.0,826:1.0]
64	[1047:1.0,1028:1.0,895:1.0,845:1.0,750:1.0,742:1.0,739:1.0,735:1.0,692:1.0,690:1.0]
65	[550:1.0,546:1.0,288:1.0,11:1.0,527:1.0,523:1.0,520:1.0,515:1.0,508:1.0,498:1.0]
66	[748:1.0,550:1.0,546:1.0,566:1.0,568:1.0,515:1.0,496:1.0,1047:1.0,483:1.0,628:1.0]
67	[831:1.0,550:1.0,9:1.0,11:1.0,588:1.0,508:1.0,496:1.0,71:1.0,483:1.0,476:1.0]
68	[751:1.0,546:1.0,566:1.0,11:1.0,527:1.0,515:1.0,508:1.0,496:1.0,483:1.0,628:1.0]
69	[566:1.0,546:1.0,11:1.0,25:1.0,28:1.0,527:1.0,31:1.0,515:1.0,514:1.0,511:1.0]
70	[1028:1.0,1016:1.0,895:1.0,879:1.0,845:1.0,780:1.0,763:1.0,756:1.0,750:1.0,748:1.0]
71	[742:1.0,546:1.0,566:1.0,288:1.0,11:1.0,531:1.0,582:1.0,527:1.0,523:1.0,515:1.0]
72	[546:1.0,288:1.0,11:1.0,24:1.0,529:1.0,523:1.0,514:1.0,511:1.0,510:1.0,508:1.0]
73	[550:1.0,9:1.0,546:1.0,538:1.0,11:1.0,25:1.0,531:1.0,527:1.0,31:1.0,523:1.0]
74	[748:1.0,546:1.0,11:1.0,25:1.0,515:1.0,514:1.0,496:1.0,71:1.0,483:1.0,479:1.0]
75	[550:1.0,9:1.0,544:1.0,288:1.0,11:1.0,527:1.0,31:1.0,515:1.0,514:1.0,511:1.0]
76	[1535:1.0,1021:1.0,1016:1.0,1014:1.0,1012:1.0,32:1.0,959:1.0,923:1.0,895:1.0,879:1.0]
77	[739:1.0,550:1.0,546:1.0,566:1.0,568:1.0,526:1.0,521:1.0,520:1.0,515:1.0,514:1.0]
78	[739:1.0,546:1.0,568:1.0,508:1.0,71:1.0,483:1.0,475:1.0,472:1.0,1028:1.0,322:1.0]
79	[882:1.0,9:1.0,546:1.0,11:1.0,25:1.0,531:1.0,527:1.0,514:1.0,511:1.0,496:1.0]
80	[732:1.0,546:1.0,566:1.0,568:1.0,25:1.0,527:1.0,526:1.0,523:1.0,521:1.0,520:1.0]
81	[550:1.0,9:1.0,546:1.0,11:1.0,531:1.0,527:1.0,31:1.0,515:1.0,514:1.0,508:1.0]
82	[1047:1.0,1016:1.0,1008:1.0,988:1.0,930:1.0,928:1.0,926:1.0,924:1.0,879:1.0,864:1.0]
83	[1014:1.0,930:1.0,928:1.0,926:1.0,895:1.0,879:1.0,831:1.0,826:1.0,825:1.0,815:1.0]
84	[550:1.0,9:1.0,288:1.0,11:1.0,527:1.0,526:1.0,521:1.0,515:1.0,514:1.0,511:1.0]
85	[1028:1.0,1016:1.0,1011:1.0,31:1.0,62:1.0,919:1.0,895:1.0,887:1.0,879:1.0,866:1.0]
86	[880:1.0,546:1.0,11:1.0,527:1.0,523:1.0,515:1.0,509:1.0,508:1.0,1062:1.0,71:1.0]
87	[1014:1.0,1011:1.0,879:1.0,864:1.0,826:1.0,815:1.0,794:1.0,763:1.0,756:1.0,755:1.0]
88	[882:1.0,546:1.0,538:1.0,11:1.0,527:1.0,515:1.0,512:1.0,511:1.0,508:1.0,483:1.0]
89	[2:1.0,550:1.0,9:1.0,546:1.0,288:1.0,11:1.0,531:1.0,527:1.0,31:1.0,523:1.0]
90	[1028:1.0,1011:1.0,1008:1.0,47:1.0,62:1.0,919:1.0,902:1.0,898:1.0,895:1.0,887:1.0]
91	[879:1.0,550:1.0,9:1.0,546:1.0,11:1.0,25:1.0,528:1.0,523:1.0,521:1.0,519:1.0]
92	[3:1.0,939:1.0,919:1.0,895:1.0,879:1.0,866:1.0,815:1.0,762:1.0,751:1.0,750:1.0]
93	[739:1.0,9:1.0,546:1.0,11:1.0,25:1.0,515:1.0,508:1.0,496:1.0,1047:1.0,71:1.0]
94	[1016:1.0,926:1.0,919:1.0,898:1.0,895:1.0,887:1.0,879:1.0,866:1.0,845:1.0,831:1.0]
95	[1028:1.0,1016:1.0,895:1.0,879:1.0,876:1.0,845:1.0,802:1.0,794:1.0,792:1.0,790:1.0]
96	[684:1.0,550:1.0,9:1.0,546:1.0,11:1.0,582:1.0,527:1.0,526:1.0,523:1.0,521:1.0]
97	[748:1.0,550:1.0,546:1.0,566:1.0,568:1.0,528:1.0,527:1.0,523:1.0,521:1.0,520:1.0]
98	[9:1.0,546:1.0,288:1.0,11:1.0,527:1.0,526:1.0,521:1.0,515:1.0,511:1.0,508:1.0]
99	[1028:1.0,1011:1.0,928:1.0,919:1.0,898:1.0,879:1.0,866:1.0,831:1.0,825:1.0,820:1.0]
100	[9:1.0,546:1.0,538:1.0,11:1.0,531:1.0,515:1.0,508:1.0,71:1.0,483:1.0,475:1.0]
101	[550:1.0,9:1.0,544:1.0,11:1.0,31:1.0,38:1.0,508:1.0,496:1.0,62:1.0,1048:1.0]
102	[1047:1.0,1028:1.0,1016:1.0,895:1.0,873:1.0,845:1.0,826:1.0,820:1.0,781:1.0,763:1.0]
103	[732:1.0,550:1.0,546:1.0,566:1.0,288:1.0,11:1.0,523:1.0,515:1.0,514:1.0,511:1.0]
104	[928:1.0,898:1.0,896:1.0,887:1.0,881:1.0,880:1.0,879:1.0,876:1.0,873:1.0,866:1.0]
105	[546:1.0,11:1.0,515:1.0,508:1.0,71:1.0,483:1.0,475:1.0,471:1.0,322:1.0,98:1.0]
106	[550:1.0,546:1.0,288:1.0,11:1.0,531:1.0,529:1.0,528:1.0,527:1.0,523:1.0,521:1.0]
107	[751:1.0,546:1.0,11:1.0,515:1.0,508:1.0,483:1.0,628:1.0,475:1.0,472:1.0,471:1.0]
108	[9:1.0,546:1.0,288:1.0,11:1.0,582:1.0,527:1.0,514:1.0,508:1.0,496:1.0,483:1.0]
109	[895:1.0,879:1.0,815:1.0,756:1.0,751:1.0,746:1.0,717:1.0,692:1.0,690:1.0,685:1.0]
110	[949:1.0,887:1.0,879:1.0,875:1.0,845:1.0,781:1.0,763:1.0,755:1.0,750:1.0,749:1.0]
111	[748:1.0,546:1.0,568:1.0,531:1.0,582:1.0,515:1.0,508:1.0,71:1.0,483:1.0,479:1.0]
112	[882:1.0,546:1.0,288:1.0,11:1.0,25:1.0,531:1.0,515:1.0,514:1.0,511:1.0,508:1.0]
113	[879:1.0,546:1.0,11:1.0,31:1.0,515:1.0,514:1.0,496:1.0,1047:1.0,71:1.0,483:1.0]
114	[550:1.0,9:1.0,546:1.0,11:1.0,25:1.0,529:1.0,528:1.0,526:1.0,523:1.0,521:1.0]
115	[2:1.0,550:1.0,546:1.0,288:1.0,25:1.0,531:1.0,528:1.0,527:1.0,526:1.0,523:1.0]
116	[8:1.0,1028:1.0,1014:1.0,1012:1.0,1007:1.0,937:1.0,936:1.0,898:1.0,892:1.0,886:1.0]
117	[186:1.0,845:1.0,2:1.0,550:1.0,9:1.0,544:1.0,527:1.0,31:1.0,38:1.0,508:1.0]
118	[1:1.0,2:1.0,550:1.0,9:1.0,546:1.0,12:1.0,11:1.0,25:1.0,527:1.0,31:1.0]
119	[8:1.0,1028:1.0,1014:1.0,1011:1.0,47:1.0,98:1.0,928:1.0,926:1.0,919:1.0,62:1.0]
120	[748:1.0,550:1.0,566:1.0,11:1.0,527:1.0,496:1.0,1047:1.0,483:1.0,628:1.0,476:1.0]
121	[550:1.0,531:1.0,529:1.0,528:1.0,527:1.0,31:1.0,523:1.0,521:1.0,517:1.0,511:1.0]
122	[2:1.0,550:1.0,9:1.0,546:1.0,25:1.0,528:1.0,527:1.0,526:1.0,523:1.0,520:1.0]
123	[546:1.0,11:1.0,25:1.0,529:1.0,527:1.0,521:1.0,520:1.0,517:1.0,515:1.0,509:1.0]
124	[742:1.0,546:1.0,566:1.0,568:1.0,527:1.0,514:1.0,511:1.0,508:1.0,498:1.0,484:1.0]
125	[1028:1.0,1047:1.0,1016:1.0,988:1.0,928:1.0,895:1.0,879:1.0,866:1.0,847:1.0,845:1.0]
126	[880:1.0,9:1.0,546:1.0,538:1.0,11:1.0,527:1.0,523:1.0,515:1.0,514:1.0,508:1.0]
127	[554:1.0,2:1.0,550:1.0,9:1.0,546:1.0,11:1.0,515:1.0,508:1.0,496:1.0,71:1.0]
128	[1047:1.0,1028:1.0,1016:1.0,879:1.0,866:1.0,845:1.0,781:1.0,762:1.0,756:1.0,751:1.0]
129	[546:1.0,538:1.0,11:1.0,531:1.0,515:1.0,511:1.0,508:1.0,483:1.0,628:1.0,479:1.0]
130	[8:1.0,1025:1.0,1012:1.0,1011:1.0,988:1.0,984:1.0,977:1.0,948:1.0,937:1.0,926:1.0]
131	[748:1.0,546:1.0,288:1.0,11:1.0,25:1.0,531:1.0,527:1.0,515:1.0,514:1.0,511:1.0]
132	[748:1.0,550:1.0,546:1.0,566:1.0,288:1.0,11:1.0,25:1.0,531:1.0,527:1.0,515:1.0]
133	[655:1.0,546:1.0,11:1.0,582:1.0,515:1.0,514:1.0,511:1.0,508:1.0,483:1.0,628:1.0]
134	[546:1.0,566:1.0,288:1.0,11:1.0,515:1.0,496:1.0,71:1.0,483:1.0,475:1.0,472:1.0]
135	[2:1.0,550:1.0,9:1.0,546:1.0,11:1.0,25:1.0,527:1.0,31:1.0,523:1.0,521:1.0]
136	[751:1.0,546:1.0,566:1.0,568:1.0,288:1.0,25:1.0,531:1.0,527:1.0,523:1.0,514:1.0]
137	[879:1.0,550:1.0,9:1.0,288:1.0,11:1.0,527:1.0,508:1.0,496:1.0,1047:1.0,71:1.0]
138	[748:1.0,546:1.0,566:1.0,288:1.0,11:1.0,25:1.0,531:1.0,528:1.0,527:1.0,526:1.0]
139	[882:1.0,546:1.0,535:1.0,25:1.0,11:1.0,515:1.0,514:1.0,496:1.0,71:1.0,315:1.0]
140	[875:1.0,546:1.0,11:1.0,515:1.0,508:1.0,315:1.0,483:1.0,628:1.0,479:1.0,476:1.0]
141	[1025:1.0,1016:1.0,1012:1.0,1011:1.0,948:1.0,928:1.0,895:1.0,887:1.0,881:1.0,879:1.0]
142	[751:1.0,550:1.0,546:1.0,566:1.0,568:1.0,582:1.0,527:1.0,523:1.0,515:1.0,511:1.0]
143	[628:1.0,546:1.0,11:1.0,515:1.0,508:1.0,483:1.0,475:1.0,472:1.0,471:1.0,98:1.0]
144	[1047:1.0,1014:1.0,1011:1.0,895:1.0,887:1.0,879:1.0,875:1.0,866:1.0,792:1.0,763:1.0]
145	[8:1.0,1016:1.0,1014:1.0,975:1.0,908:1.0,902:1.0,887:1.0,881:1.0,880:1.0,876:1.0]
146	[880:1.0,546:1.0,539:1.0,538:1.0,11:1.0,288:1.0,515:1.0,508:1.0,1062:1.0,71:1.0]
147	[880:1.0,546:1.0,568:1.0,582:1.0,515:1.0,508:1.0,483:1.0,479:1.0,475:1.0,471:1.0]
148	[550:1.0,9:1.0,546:1.0,11:1.0,25:1.0,527:1.0,31:1.0,523:1.0,515:1.0,514:1.0]
149	[882:1.0,546:1.0,568:1.0,288:1.0,515:1.0,514:1.0,508:1.0,71:1.0,483:1.0,479:1.0]
150	[748:1.0,546:1.0,566:1.0,568:1.0,531:1.0,582:1.0,527:1.0,515:1.0,514:1.0,508:1.0]
151	[1028:1.0,926:1.0,879:1.0,866:1.0,763:1.0,762:1.0,756:1.0,751:1.0,750:1.0,746:1.0]
152	[1016:1.0,934:1.0,895:1.0,879:1.0,815:1.0,762:1.0,756:1.0,751:1.0,750:1.0,748:1.0]
153	[742:1.0,550:1.0,546:1.0,566:1.0,527:1.0,31:1.0,523:1.0,515:1.0,514:1.0,511:1.0]
154	[550:1.0,9:1.0,546:1.0,11:1.0,25:1.0,528:1.0,526:1.0,521:1.0,520:1.0,517:1.0]
155	[546:1.0,11:1.0,515:1.0,508:1.0,71:1.0,483:1.0,479:1.0,476:1.0,475:1.0,472:1.0]
156	[657:1.0,550:1.0,546:1.0,566:1.0,568:1.0,527:1.0,526:1.0,523:1.0,521:1.0,520:1.0]
157	[550:1.0,9:1.0,546:1.0,288:1.0,11:1.0,527:1.0,31:1.0,514:1.0,496:1.0,1047:1.0]
158	[1028:1.0,928:1.0,926:1.0,879:1.0,845:1.0,763:1.0,762:1.0,756:1.0,751:1.0,748:1.0]
159	[1047:1.0,1016:1.0,934:1.0,928:1.0,926:1.0,895:1.0,887:1.0,886:1.0,879:1.0,875:1.0]
160	[1028:1.0,1011:1.0,928:1.0,919:1.0,879:1.0,866:1.0,845:1.0,815:1.0,756:1.0,751:1.0]
161	[550:1.0,9:1.0,546:1.0,288:1.0,11:1.0,25:1.0,527:1.0,31:1.0,521:1.0,520:1.0]
162	[748:1.0,2:1.0,550:1.0,9:1.0,546:1.0,568:1.0,288:1.0,527:1.0,588:1.0,514:1.0]
163	[739:1.0,546:1.0,566:1.0,568:1.0,527:1.0,515:1.0,508:1.0,496:1.0,483:1.0,628:1.0]
164	[879:1.0,550:1.0,546:1.0,288:1.0,11:1.0,38:1.0,508:1.0,496:1.0,62:1.0,1047:1.0]
165	[750:1.0,550:1.0,9:1.0,546:1.0,11:1.0,527:1.0,588:1.0,515:1.0,511:1.0,508:1.0]
166	[546:1.0,538:1.0,11:1.0,508:1.0,71:1.0,475:1.0,472:1.0,471:1.0,98:1.0,455:1.0]
167	[1031:1.0,1028:1.0,1047:1.0,1021:1.0,1019:1.0,1004:1.0,999:1.0,996:1.0,994:1.0,972:1.0]
168	[751:1.0,550:1.0,566:1.0,11:1.0,582:1.0,527:1.0,515:1.0,508:1.0,496:1.0,483:1.0]
169	[9:1.0,546:1.0,11:1.0,25:1.0,528:1.0,527:1.0,526:1.0,523:1.0,521:1.0,520:1.0]
170	[748:1.0,546:1.0,568:1.0,515:1.0,508:1.0,1047:1.0,71:1.0,475:1.0,472:1.0,471:1.0]
171	[880:1.0,546:1.0,568:1.0,531:1.0,515:1.0,514:1.0,508:1.0,71:1.0,483:1.0,479:1.0]
172	[732:1.0,550:1.0,9:1.0,546:1.0,568:1.0,288:1.0,527:1.0,523:1.0,521:1.0,517:1.0]
173	[546:1.0,288:1.0,11:1.0,582:1.0,515:1.0,514:1.0,508:1.0,1047:1.0,483:1.0,628:1.0]
174	[1016:1.0,1012:1.0,928:1.0,926:1.0,900:1.0,898:1.0,895:1.0,887:1.0,886:1.0,881:1.0]
175	[739:1.0,550:1.0,546:1.0,568:1.0,527:1.0,526:1.0,523:1.0,588:1.0,515:1.0,514:1.0]
176	[9:1.0,546:1.0,11:1.0,531:1.0,515:1.0,514:1.0,496:1.0,1047:1.0,71:1.0,483:1.0]
177	[1016:1.0,988:1.0,895:1.0,887:1.0,880:1.0,879:1.0,876:1.0,873:1.0,872:1.0,845:1.0]
178	[1014:1.0,934:1.0,928:1.0,887:1.0,886:1.0,880:1.0,879:1.0,872:1.0,815:1.0,754:1.0]
179	[909:1.0,554:1.0,2:1.0,550:1.0,9:1.0,546:1.0,13:1.0,11:1.0,25:1.0,531:1.0]
180	[2:1.0,550:1.0,9:1.0,546:1.0,288:1.0,11:1.0,25:1.0,527:1.0,31:1.0,514:1.0]
181	[1590:1.0,1589:1.0,1588:1.0,1405:1.0,1404:1.0,1399:1.0,1226:1.0,1176:1.0,1142:1.0,1032:1.0]
182	[748:1.0,9:1.0,546:1.0,288:1.0,11:1.0,582:1.0,527:1.0,31:1.0,515:1.0,514:1.0]
183	[2:1.0,554:1.0,550:1.0,9:1.0,546:1.0,11:1.0,25:1.0,527:1.0,31:1.0,523:1.0]
184	[8:1.0,1028:1.0,1016:1.0,1011:1.0,928:1.0,919:1.0,887:1.0,882:1.0,880:1.0,879:1.0]
185	[550:1.0,546:1.0,288:1.0,11:1.0,531:1.0,527:1.0,526:1.0,523:1.0,521:1.0,520:1.0]
186	[7:1.0,1028:1.0,1025:1.0,1014:1.0,1011:1.0,989:1.0,930:1.0,928:1.0,926:1.0,905:1.0]
187	[550:1.0,9:1.0,546:1.0,11:1.0,25:1.0,531:1.0,527:1.0,31:1.0,515:1.0,514:1.0]
188	[2:1.0,550:1.0,9:1.0,546:1.0,12:1.0,25:1.0,527:1.0,526:1.0,523:1.0,521:1.0]
189	[1028:1.0,1016:1.0,1014:1.0,1009:1.0,971:1.0,926:1.0,924:1.0,895:1.0,879:1.0,874:1.0]
190	[845:1.0,550:1.0,11:1.0,31:1.0,515:1.0,496:1.0,1047:1.0,71:1.0,483:1.0,476:1.0]
191	[748:1.0,546:1.0,11:1.0,531:1.0,582:1.0,515:1.0,514:1.0,511:1.0,508:1.0,483:1.0]
192	[546:1.0,288:1.0,11:1.0,23:1.0,529:1.0,527:1.0,514:1.0,511:1.0,508:1.0,307:1.0]
193	[1028:1.0,1016:1.0,926:1.0,898:1.0,887:1.0,873:1.0,866:1.0,762:1.0,756:1.0,751:1.0]
194	[1047:1.0,926:1.0,879:1.0,866:1.0,845:1.0,831:1.0,763:1.0,755:1.0,751:1.0,748:1.0]
195	[8:1.0,1028:1.0,13:1.0,1016:1.0,1012:1.0,45:1.0,50:1.0,936:1.0,930:1.0,928:1.0]
196	[2:1.0,550:1.0,9:1.0,546:1.0,11:1.0,531:1.0,527:1.0,523:1.0,515:1.0,514:1.0]
197	[1016:1.0,898:1.0,896:1.0,887:1.0,875:1.0,873:1.0,845:1.0,746:1.0,742:1.0,739:1.0]
198	[1047:1.0,1028:1.0,1016:1.0,1011:1.0,975:1.0,928:1.0,895:1.0,879:1.0,866:1.0,845:1.0]
199	[682:1.0,546:1.0,288:1.0,11:1.0,25:1.0,531:1.0,515:1.0,514:1.0,511:1.0,496:1.0]
200	[1047:1.0,1016:1.0,928:1.0,926:1.0,879:1.0,845:1.0,827:1.0,815:1.0,763:1.0,751:1.0]
201	[1028:1.0,1016:1.0,1009:1.0,928:1.0,926:1.0,887:1.0,155:1.0,880:1.0,879:1.0,873:1.0]
202	[748:1.0,550:1.0,9:1.0,546:1.0,11:1.0,527:1.0,523:1.0,520:1.0,514:1.0,511:1.0]
203	[751:1.0,550:1.0,546:1.0,566:1.0,568:1.0,25:1.0,515:1.0,508:1.0,496:1.0,1047:1.0]
204	[879:1.0,546:1.0,11:1.0,25:1.0,527:1.0,515:1.0,514:1.0,511:1.0,508:1.0,498:1.0]
205	[628:1.0,546:1.0,568:1.0,288:1.0,515:1.0,508:1.0,483:1.0,475:1.0,472:1.0,471:1.0]
206	[1038:1.0,1399:1.0,1031:1.0,1025:1.0,1016:1.0,1005:1.0,999:1.0,997:1.0,996:1.0,995:1.0]
207	[10:1.0,1017:1.0,1016:1.0,1014:1.0,1011:1.0,1009:1.0,54:1.0,63:1.0,934:1.0,930:1.0]
208	[742:1.0,550:1.0,546:1.0,566:1.0,568:1.0,582:1.0,527:1.0,521:1.0,515:1.0,511:1.0]
209	[882:1.0,546:1.0,538:1.0,11:1.0,23:1.0,25:1.0,531:1.0,527:1.0,515:1.0,514:1.0]
210	[1016:1.0,879:1.0,866:1.0,845:1.0,815:1.0,781:1.0,756:1.0,750:1.0,748:1.0,742:1.0]
211	[550:1.0,546:1.0,11:1.0,25:1.0,527:1.0,523:1.0,521:1.0,515:1.0,514:1.0,511:1.0]
212	[748:1.0,9:1.0,546:1.0,568:1.0,25:1.0,523:1.0,514:1.0,508:1.0,498:1.0,496:1.0]
213	[550:1.0,9:1.0,527:1.0,526:1.0,523:1.0,501:1.0,498:1.0,496:1.0,1047:1.0,71:1.0]
214	[1016:1.0,1012:1.0,919:1.0,895:1.0,887:1.0,879:1.0,845:1.0,763:1.0,762:1.0,751:1.0]
215	[2:1.0,554:1.0,550:1.0,9:1.0,546:1.0,25:1.0,527:1.0,526:1.0,521:1.0,520:1.0]
216	[1028:1.0,1016:1.0,1011:1.0,919:1.0,845:1.0,762:1.0,756:1.0,751:1.0,750:1.0,748:1.0]
217	[831:1.0,9:1.0,288:1.0,527:1.0,31:1.0,514:1.0,508:1.0,496:1.0,1047:1.0,69:1.0]
218	[2:1.0,550:1.0,9:1.0,546:1.0,11:1.0,25:1.0,527:1.0,526:1.0,523:1.0,521:1.0]
219	[550:1.0,9:1.0,288:1.0,11:1.0,25:1.0,531:1.0,529:1.0,528:1.0,527:1.0,298:1.0]
220	[748:1.0,546:1.0,11:1.0,515:1.0,514:1.0,508:1.0,71:1.0,483:1.0,479:1.0,475:1.0]
221	[1028:1.0,1047:1.0,926:1.0,879:1.0,845:1.0,826:1.0,825:1.0,820:1.0,790:1.0,755:1.0]
222	[1028:1.0,1014:1.0,1012:1.0,988:1.0,928:1.0,926:1.0,879:1.0,873:1.0,866:1.0,831:1.0]
223	[1048:1.0,1028:1.0,1047:1.0,1011:1.0,948:1.0,934:1.0,928:1.0,909:1.0,905:1.0,902:1.0]
224	[8:1.0,1028:1.0,1016:1.0,1014:1.0,1011:1.0,1009:1.0,1008:1.0,988:1.0,950:1.0,898:1.0]
225	[550:1.0,9:1.0,546:1.0,11:1.0,527:1.0,526:1.0,523:1.0,521:1.0,520:1.0,519:1.0]
226	[550:1.0,546:1.0,288:1.0,11:1.0,31:1.0,523:1.0,515:1.0,514:1.0,511:1.0,498:1.0]
227	[546:1.0,544:1.0,11:1.0,531:1.0,527:1.0,515:1.0,514:1.0,511:1.0,508:1.0,496:1.0]
228	[9:1.0,546:1.0,11:1.0,527:1.0,515:1.0,514:1.0,511:1.0,508:1.0,498:1.0,496:1.0]
229	[546:1.0,568:1.0,531:1.0,582:1.0,515:1.0,508:1.0,483:1.0,628:1.0,479:1.0,475:1.0]
230	[1028:1.0,988:1.0,895:1.0,890:1.0,879:1.0,877:1.0,876:1.0,845:1.0,763:1.0,756:1.0]
231	[9:1.0,546:1.0,568:1.0,288:1.0,515:1.0,508:1.0,496:1.0,1047:1.0,71:1.0,483:1.0]
232	[550:1.0,9:1.0,546:1.0,288:1.0,11:1.0,25:1.0,529:1.0,527:1.0,526:1.0,521:1.0]
233	[550:1.0,546:1.0,288:1.0,11:1.0,25:1.0,531:1.0,526:1.0,520:1.0,514:1.0,510:1.0]
234	[1047:1.0,1028:1.0,1016:1.0,1008:1.0,995:1.0,988:1.0,937:1.0,926:1.0,919:1.0,900:1.0]
235	[900:1.0,896:1.0,895:1.0,887:1.0,882:1.0,880:1.0,879:1.0,855:1.0,845:1.0,751:1.0]
236	[1047:1.0,1028:1.0,1016:1.0,928:1.0,926:1.0,895:1.0,879:1.0,845:1.0,831:1.0,820:1.0]
237	[732:1.0,546:1.0,566:1.0,568:1.0,25:1.0,529:1.0,527:1.0,526:1.0,523:1.0,521:1.0]
238	[748:1.0,9:1.0,11:1.0,515:1.0,508:1.0,496:1.0,1047:1.0,483:1.0,628:1.0,475:1.0]
239	[1011:1.0,979:1.0,928:1.0,895:1.0,887:1.0,879:1.0,845:1.0,792:1.0,763:1.0,751:1.0]
240	[546:1.0,568:1.0,515:1.0,508:1.0,483:1.0,628:1.0,475:1.0,472:1.0,471:1.0,322:1.0]
241	[546:1.0,11:1.0,515:1.0,508:1.0,315:1.0,483:1.0,628:1.0,319:1.0,475:1.0,471:1.0]
242	[882:1.0,546:1.0,288:1.0,11:1.0,25:1.0,527:1.0,515:1.0,514:1.0,511:1.0,508:1.0]
243	[1028:1.0,1009:1.0,1008:1.0,958:1.0,919:1.0,887:1.0,866:1.0,845:1.0,815:1.0,792:1.0]
244	[1016:1.0,934:1.0,928:1.0,879:1.0,831:1.0,826:1.0,820:1.0,792:1.0,781:1.0,751:1.0]
245	[732:1.0,550:1.0,546:1.0,566:1.0,288:1.0,11:1.0,527:1.0,508:1.0,496:1.0,483:1.0]
246	[1047:1.0,1016:1.0,928:1.0,926:1.0,879:1.0,866:1.0,845:1.0,826:1.0,820:1.0,780:1.0]
247	[748:1.0,546:1.0,566:1.0,288:1.0,11:1.0,582:1.0,527:1.0,515:1.0,514:1.0,508:1.0]
248	[748:1.0,550:1.0,9:1.0,546:1.0,568:1.0,288:1.0,527:1.0,523:1.0,588:1.0,514:1.0]
249	[8:1.0,1028:1.0,926:1.0,879:1.0,866:1.0,845:1.0,831:1.0,763:1.0,762:1.0,756:1.0]
250	[1047:1.0,1028:1.0,1016:1.0,1011:1.0,928:1.0,919:1.0,895:1.0,880:1.0,879:1.0,876:1.0]
251	[550:1.0,9:1.0,546:1.0,11:1.0,527:1.0,526:1.0,523:1.0,515:1.0,514:1.0,511:1.0]
252	[628:1.0,546:1.0,568:1.0,288:1.0,531:1.0,582:1.0,515:1.0,514:1.0,508:1.0,496:1.0]
253	[1028:1.0,879:1.0,845:1.0,763:1.0,750:1.0,748:1.0,739:1.0,735:1.0,693:1.0,692:1.0]
254	[1016:1.0,988:1.0,895:1.0,879:1.0,866:1.0,845:1.0,763:1.0,756:1.0,751:1.0,750:1.0]
255	[1028:1.0,1016:1.0,948:1.0,928:1.0,926:1.0,887:1.0,881:1.0,880:1.0,877:1.0,876:1.0]
256	[8:1.0,1016:1.0,1014:1.0,1011:1.0,928:1.0,926:1.0,924:1.0,919:1.0,895:1.0,879:1.0]
257	[1014:1.0,1012:1.0,1011:1.0,1121:1.0,919:1.0,900:1.0,896:1.0,895:1.0,887:1.0,879:1.0]
258	[546:1.0,568:1.0,515:1.0,508:1.0,483:1.0,628:1.0,475:1.0,471:1.0,876:1.0,98:1.0]
259	[550:1.0,9:1.0,11:1.0,25:1.0,527:1.0,523:1.0,515:1.0,514:1.0,511:1.0,508:1.0]
260	[550:1.0,546:1.0,11:1.0,515:1.0,508:1.0,71:1.0,315:1.0,483:1.0,475:1.0,471:1.0]
261	[895:1.0,9:1.0,546:1.0,11:1.0,508:1.0,1047:1.0,71:1.0,315:1.0,476:1.0,475:1.0]
262	[1028:1.0,1016:1.0,1012:1.0,934:1.0,930:1.0,928:1.0,926:1.0,895:1.0,879:1.0,873:1.0]
263	[550:1.0,9:1.0,546:1.0,11:1.0,25:1.0,519:1.0,508:1.0,507:1.0,506:1.0,504:1.0]
264	[8:1.0,1011:1.0,919:1.0,879:1.0,845:1.0,825:1.0,763:1.0,751:1.0,750:1.0,748:1.0]
265	[655:1.0,546:1.0,566:1.0,568:1.0,31:1.0,515:1.0,508:1.0,496:1.0,1047:1.0,483:1.0]
266	[748:1.0,546:1.0,568:1.0,288:1.0,531:1.0,582:1.0,515:1.0,514:1.0,496:1.0,71:1.0]
267	[1016:1.0,1011:1.0,845:1.0,790:1.0,781:1.0,763:1.0,756:1.0,748:1.0,746:1.0,722:1.0]
268	[8:1.0,1028:1.0,1014:1.0,1012:1.0,1011:1.0,984:1.0,939:1.0,895:1.0,879:1.0,866:1.0]
269	[1016:1.0,1012:1.0,977:1.0,969:1.0,926:1.0,62:1.0,895:1.0,887:1.0,879:1.0,866:1.0]
270	[1028:1.0,1016:1.0,1011:1.0,948:1.0,919:1.0,895:1.0,887:1.0,881:1.0,880:1.0,879:1.0]
271	[1047:1.0,1016:1.0,926:1.0,898:1.0,896:1.0,895:1.0,887:1.0,879:1.0,762:1.0,751:1.0]
272	[550:1.0,9:1.0,546:1.0,25:1.0,527:1.0,31:1.0,523:1.0,520:1.0,515:1.0,511:1.0]
273	[682:1.0,546:1.0,568:1.0,531:1.0,582:1.0,515:1.0,514:1.0,511:1.0,508:1.0,483:1.0]
274	[550:1.0,11:1.0,527:1.0,31:1.0,523:1.0,515:1.0,514:1.0,511:1.0,508:1.0,498:1.0]
275	[831:1.0,554:1.0,2:1.0,550:1.0,9:1.0,546:1.0,288:1.0,11:1.0,527:1.0,526:1.0]
276	[1014:1.0,1012:1.0,979:1.0,926:1.0,900:1.0,898:1.0,895:1.0,887:1.0,886:1.0,880:1.0]
277	[550:1.0,546:1.0,288:1.0,11:1.0,531:1.0,31:1.0,515:1.0,514:1.0,511:1.0,496:1.0]
278	[690:1.0,9:1.0,546:1.0,568:1.0,25:1.0,527:1.0,523:1.0,514:1.0,511:1.0,508:1.0]
279	[1074:1.0,1016:1.0,1014:1.0,989:1.0,988:1.0,984:1.0,959:1.0,950:1.0,930:1.0,928:1.0]
280	[1016:1.0,24:1.0,1011:1.0,930:1.0,926:1.0,900:1.0,898:1.0,896:1.0,895:1.0,887:1.0]
281	[546:1.0,568:1.0,515:1.0,508:1.0,71:1.0,475:1.0,471:1.0,876:1.0,98:1.0,990:1.0]
282	[546:1.0,11:1.0,508:1.0,71:1.0,483:1.0,475:1.0,472:1.0,471:1.0,322:1.0,1016:1.0]
283	[2:1.0,550:1.0,9:1.0,546:1.0,11:1.0,25:1.0,527:1.0,31:1.0,523:1.0,514:1.0]
284	[880:1.0,546:1.0,288:1.0,11:1.0,25:1.0,531:1.0,515:1.0,514:1.0,511:1.0,508:1.0]
285	[750:1.0,9:1.0,546:1.0,11:1.0,527:1.0,523:1.0,521:1.0,515:1.0,511:1.0,508:1.0]
286	[8:1.0,1028:1.0,1025:1.0,1016:1.0,1011:1.0,1008:1.0,995:1.0,990:1.0,52:1.0,984:1.0]
287	[2:1.0,550:1.0,288:1.0,25:1.0,527:1.0,31:1.0,514:1.0,508:1.0,496:1.0,1047:1.0]
288	[1028:1.0,1011:1.0,988:1.0,896:1.0,895:1.0,881:1.0,879:1.0,877:1.0,875:1.0,873:1.0]
289	[588:1.0,550:1.0,9:1.0,546:1.0,568:1.0,508:1.0,496:1.0,1047:1.0,71:1.0,483:1.0]
290	[1016:1.0,879:1.0,866:1.0,845:1.0,831:1.0,815:1.0,763:1.0,756:1.0,751:1.0,748:1.0]
291	[1014:1.0,1011:1.0,930:1.0,926:1.0,919:1.0,866:1.0,176:1.0,180:1.0,845:1.0,831:1.0]
292	[1016:1.0,1011:1.0,895:1.0,879:1.0,845:1.0,763:1.0,762:1.0,751:1.0,750:1.0,742:1.0]
293	[9:1.0,1028:1.0,1012:1.0,928:1.0,887:1.0,879:1.0,847:1.0,763:1.0,762:1.0,756:1.0]
294	[8:1.0,1009:1.0,28:1.0,948:1.0,919:1.0,892:1.0,887:1.0,886:1.0,880:1.0,877:1.0]
295	[8:1.0,942:1.0,926:1.0,866:1.0,845:1.0,831:1.0,781:1.0,763:1.0,756:1.0,755:1.0]
296	[1047:1.0,1028:1.0,1016:1.0,1014:1.0,1012:1.0,1011:1.0,988:1.0,919:1.0,895:1.0,887:1.0]
297	[1047:1.0,1028:1.0,1012:1.0,988:1.0,895:1.0,879:1.0,866:1.0,845:1.0,815:1.0,763:1.0]
298	[882:1.0,550:1.0,11:1.0,25:1.0,521:1.0,520:1.0,515:1.0,508:1.0,501:1.0,31:1.0]
299	[8:1.0,1028:1.0,11:1.0,1016:1.0,1014:1.0,1011:1.0,29:1.0,995:1.0,64:1.0,926:1.0]
300	[1028:1.0,9:1.0,546:1.0,568:1.0,508:1.0,1047:1.0,628:1.0,476:1.0,475:1.0,472:1.0]
301	[928:1.0,926:1.0,879:1.0,845:1.0,815:1.0,751:1.0,750:1.0,748:1.0,705:1.0,690:1.0]
302	[546:1.0,568:1.0,288:1.0,508:1.0,71:1.0,483:1.0,479:1.0,319:1.0,475:1.0,472:1.0]
303	[1074:1.0,1028:1.0,1009:1.0,988:1.0,946:1.0,930:1.0,895:1.0,887:1.0,881:1.0,880:1.0]
304	[546:1.0,568:1.0,527:1.0,515:1.0,508:1.0,496:1.0,1047:1.0,483:1.0,628:1.0,476:1.0]
305	[1028:1.0,1047:1.0,1016:1.0,896:1.0,895:1.0,887:1.0,879:1.0,855:1.0,763:1.0,750:1.0]
306	[751:1.0,546:1.0,288:1.0,11:1.0,531:1.0,515:1.0,514:1.0,511:1.0,508:1.0,496:1.0]
307	[2:1.0,554:1.0,550:1.0,9:1.0,546:1.0,288:1.0,11:1.0,25:1.0,531:1.0,31:1.0]
308	[1016:1.0,1012:1.0,926:1.0,919:1.0,895:1.0,879:1.0,855:1.0,845:1.0,763:1.0,762:1.0]
309	[748:1.0,546:1.0,568:1.0,288:1.0,515:1.0,514:1.0,508:1.0,315:1.0,483:1.0,479:1.0]
310	[751:1.0,9:1.0,546:1.0,288:1.0,11:1.0,25:1.0,531:1.0,527:1.0,515:1.0,514:1.0]
311	[1028:1.0,898:1.0,895:1.0,887:1.0,879:1.0,763:1.0,746:1.0,742:1.0,693:1.0,690:1.0]
312	[923:1.0,845:1.0,792:1.0,748:1.0,744:1.0,742:1.0,739:1.0,735:1.0,732:1.0,724:1.0]
313	[1028:1.0,895:1.0,879:1.0,866:1.0,763:1.0,756:1.0,751:1.0,750:1.0,732:1.0,709:1.0]
314	[2:1.0,14:1.0,1011:1.0,31:1.0,50:1.0,988:1.0,55:1.0,977:1.0,975:1.0,930:1.0]
315	[2:1.0,550:1.0,9:1.0,546:1.0,11:1.0,528:1.0,527:1.0,521:1.0,515:1.0,514:1.0]
316	[879:1.0,550:1.0,546:1.0,11:1.0,25:1.0,529:1.0,527:1.0,526:1.0,523:1.0,520:1.0]
317	[684:1.0,546:1.0,568:1.0,508:1.0,628:1.0,319:1.0,475:1.0,472:1.0,471:1.0,1016:1.0]
318	[1047:1.0,1028:1.0,1016:1.0,926:1.0,895:1.0,879:1.0,845:1.0,781:1.0,762:1.0,756:1.0]
319	[748:1.0,546:1.0,11:1.0,527:1.0,515:1.0,508:1.0,71:1.0,483:1.0,475:1.0,471:1.0]
320	[1028:1.0,1016:1.0,930:1.0,928:1.0,926:1.0,879:1.0,845:1.0,831:1.0,820:1.0,815:1.0]
321	[546:1.0,288:1.0,11:1.0,25:1.0,528:1.0,520:1.0,517:1.0,512:1.0,509:1.0,508:1.0]
322	[550:1.0,546:1.0,288:1.0,11:1.0,25:1.0,527:1.0,31:1.0,525:1.0,523:1.0,520:1.0]
323	[550:1.0,25:1.0,531:1.0,527:1.0,526:1.0,523:1.0,515:1.0,514:1.0,511:1.0,498:1.0]
324	[550:1.0,546:1.0,11:1.0,25:1.0,531:1.0,527:1.0,31:1.0,515:1.0,514:1.0,496:1.0]
325	[926:1.0,919:1.0,879:1.0,845:1.0,792:1.0,780:1.0,763:1.0,755:1.0,751:1.0,750:1.0]
326	[2:1.0,546:1.0,12:1.0,11:1.0,25:1.0,506:1.0,504:1.0,497:1.0,31:1.0,71:1.0]
327	[1028:1.0,1016:1.0,1014:1.0,1011:1.0,923:1.0,900:1.0,898:1.0,887:1.0,879:1.0,873:1.0]
328	[1028:1.0,1016:1.0,928:1.0,908:1.0,906:1.0,902:1.0,900:1.0,898:1.0,896:1.0,895:1.0]
329	[550:1.0,9:1.0,546:1.0,25:1.0,529:1.0,527:1.0,523:1.0,514:1.0,511:1.0,509:1.0]
330	[926:1.0,815:1.0,756:1.0,755:1.0,748:1.0,746:1.0,742:1.0,735:1.0,705:1.0,690:1.0]
331	[923:1.0,887:1.0,879:1.0,855:1.0,845:1.0,792:1.0,763:1.0,751:1.0,750:1.0,748:1.0]
332	[1014:1.0,977:1.0,930:1.0,926:1.0,873:1.0,825:1.0,762:1.0,751:1.0,750:1.0,739:1.0]
333	[9:1.0,546:1.0,288:1.0,11:1.0,527:1.0,523:1.0,515:1.0,514:1.0,511:1.0,508:1.0]
334	[2:1.0,1028:1.0,1022:1.0,1012:1.0,995:1.0,988:1.0,926:1.0,924:1.0,919:1.0,903:1.0]
335	[546:1.0,11:1.0,515:1.0,508:1.0,71:1.0,483:1.0,475:1.0,471:1.0,1016:1.0,455:1.0]
336	[1028:1.0,1016:1.0,934:1.0,928:1.0,924:1.0,866:1.0,833:1.0,826:1.0,825:1.0,820:1.0]
337	[559:1.0,550:1.0,9:1.0,546:1.0,568:1.0,288:1.0,527:1.0,31:1.0,523:1.0,514:1.0]
338	[9:1.0,546:1.0,11:1.0,25:1.0,528:1.0,527:1.0,526:1.0,521:1.0,520:1.0,519:1.0]
339	[8:1.0,1028:1.0,1016:1.0,1012:1.0,71:1.0,895:1.0,879:1.0,866:1.0,763:1.0,756:1.0]
340	[739:1.0,550:1.0,9:1.0,546:1.0,568:1.0,845:1.0,527:1.0,523:1.0,521:1.0,515:1.0]
341	[546:1.0,568:1.0,752:1.0,515:1.0,508:1.0,1047:1.0,71:1.0,476:1.0,475:1.0,472:1.0]
342	[1028:1.0,31:1.0,924:1.0,919:1.0,121:1.0,895:1.0,887:1.0,880:1.0,879:1.0,864:1.0]
343	[1028:1.0,1016:1.0,1011:1.0,926:1.0,887:1.0,879:1.0,866:1.0,845:1.0,763:1.0,762:1.0]
344	[1028:1.0,1047:1.0,1016:1.0,1012:1.0,1011:1.0,919:1.0,887:1.0,879:1.0,866:1.0,826:1.0]
345	[1028:1.0,62:1.0,975:1.0,896:1.0,895:1.0,887:1.0,882:1.0,881:1.0,763:1.0,756:1.0]
346	[1028:1.0,1016:1.0,845:1.0,826:1.0,820:1.0,815:1.0,781:1.0,763:1.0,751:1.0,750:1.0]
347	[895:1.0,866:1.0,845:1.0,833:1.0,826:1.0,825:1.0,823:1.0,815:1.0,762:1.0,751:1.0]
348	[554:1.0,550:1.0,9:1.0,11:1.0,527:1.0,38:1.0,515:1.0,508:1.0,307:1.0,496:1.0]
349	[11:1.0,531:1.0,527:1.0,515:1.0,514:1.0,511:1.0,508:1.0,496:1.0,1047:1.0,71:1.0]
350	[568:1.0,550:1.0,9:1.0,546:1.0,527:1.0,526:1.0,523:1.0,521:1.0,520:1.0,514:1.0]
351	[687:1.0,554:1.0,9:1.0,546:1.0,11:1.0,25:1.0,515:1.0,511:1.0,508:1.0,71:1.0]
352	[739:1.0,559:1.0,550:1.0,9:1.0,546:1.0,11:1.0,25:1.0,527:1.0,31:1.0,523:1.0]
353	[568:1.0,546:1.0,288:1.0,515:1.0,508:1.0,71:1.0,483:1.0,475:1.0,471:1.0,322:1.0]
354	[1028:1.0,1016:1.0,1014:1.0,1012:1.0,1011:1.0,919:1.0,902:1.0,898:1.0,895:1.0,886:1.0]
355	[880:1.0,1432:1.0,546:1.0,11:1.0,527:1.0,526:1.0,515:1.0,508:1.0,1062:1.0,1176:1.0]
356	[754:1.0,546:1.0,568:1.0,515:1.0,508:1.0,71:1.0,483:1.0,319:1.0,475:1.0,471:1.0]
357	[845:1.0,550:1.0,9:1.0,288:1.0,11:1.0,25:1.0,31:1.0,38:1.0,515:1.0,307:1.0]
358	[959:1.0,845:1.0,792:1.0,751:1.0,750:1.0,748:1.0,742:1.0,739:1.0,735:1.0,732:1.0]
359	[550:1.0,9:1.0,568:1.0,288:1.0,508:1.0,496:1.0,1047:1.0,483:1.0,628:1.0,476:1.0]
360	[550:1.0,9:1.0,546:1.0,288:1.0,11:1.0,529:1.0,527:1.0,526:1.0,514:1.0,509:1.0]
361	[1028:1.0,866:1.0,845:1.0,815:1.0,763:1.0,756:1.0,751:1.0,750:1.0,748:1.0,747:1.0]
362	[546:1.0,568:1.0,508:1.0,628:1.0,475:1.0,472:1.0,471:1.0,876:1.0,1016:1.0,455:1.0]
363	[1028:1.0,1011:1.0,928:1.0,926:1.0,902:1.0,900:1.0,887:1.0,879:1.0,877:1.0,876:1.0]
364	[748:1.0,546:1.0,568:1.0,515:1.0,508:1.0,1047:1.0,71:1.0,483:1.0,476:1.0,475:1.0]
365	[1016:1.0,9:1.0,546:1.0,538:1.0,11:1.0,23:1.0,527:1.0,515:1.0,514:1.0,511:1.0]
366	[1:1.0,742:1.0,4:1.0,550:1.0,546:1.0,12:1.0,566:1.0,568:1.0,527:1.0,523:1.0]
367	[2:1.0,554:1.0,4:1.0,550:1.0,9:1.0,546:1.0,12:1.0,11:1.0,527:1.0,31:1.0]
368	[1:1.0,2:1.0,4:1.0,550:1.0,9:1.0,546:1.0,12:1.0,527:1.0,31:1.0,515:1.0]
369	[879:1.0,9:1.0,546:1.0,11:1.0,25:1.0,531:1.0,527:1.0,515:1.0,514:1.0,511:1.0]
370	[550:1.0,9:1.0,546:1.0,288:1.0,11:1.0,25:1.0,531:1.0,529:1.0,527:1.0,526:1.0]
371	[742:1.0,559:1.0,550:1.0,546:1.0,566:1.0,11:1.0,588:1.0,521:1.0,515:1.0,514:1.0]
372	[1047:1.0,1016:1.0,928:1.0,919:1.0,895:1.0,887:1.0,881:1.0,880:1.0,879:1.0,876:1.0]
373	[1028:1.0,1016:1.0,879:1.0,866:1.0,845:1.0,825:1.0,763:1.0,751:1.0,742:1.0,736:1.0]
374	[1016:1.0,988:1.0,939:1.0,926:1.0,919:1.0,895:1.0,887:1.0,881:1.0,879:1.0,876:1.0]
375	[739:1.0,559:1.0,550:1.0,546:1.0,568:1.0,25:1.0,527:1.0,588:1.0,515:1.0,514:1.0]
376	[748:1.0,546:1.0,25:1.0,527:1.0,523:1.0,515:1.0,511:1.0,508:1.0,498:1.0,496:1.0]
377	[550:1.0,9:1.0,546:1.0,568:1.0,527:1.0,514:1.0,496:1.0,483:1.0,628:1.0,480:1.0]
378	[1016:1.0,1011:1.0,895:1.0,887:1.0,879:1.0,864:1.0,831:1.0,826:1.0,820:1.0,815:1.0]
379	[896:1.0,895:1.0,887:1.0,879:1.0,845:1.0,792:1.0,768:1.0,755:1.0,754:1.0,751:1.0]
380	[895:1.0,879:1.0,792:1.0,748:1.0,742:1.0,739:1.0,735:1.0,705:1.0,692:1.0,690:1.0]
381	[1028:1.0,900:1.0,896:1.0,895:1.0,880:1.0,879:1.0,877:1.0,873:1.0,866:1.0,845:1.0]
382	[550:1.0,288:1.0,11:1.0,28:1.0,527:1.0,31:1.0,523:1.0,521:1.0,515:1.0,509:1.0]
383	[546:1.0,288:1.0,11:1.0,25:1.0,529:1.0,527:1.0,526:1.0,523:1.0,521:1.0,520:1.0]
384	[880:1.0,546:1.0,288:1.0,11:1.0,508:1.0,71:1.0,483:1.0,319:1.0,475:1.0,471:1.0]
385	[1028:1.0,1016:1.0,1011:1.0,1009:1.0,1005:1.0,31:1.0,63:1.0,64:1.0,955:1.0,90:1.0]
386	[831:1.0,550:1.0,9:1.0,11:1.0,527:1.0,588:1.0,508:1.0,496:1.0,1047:1.0,71:1.0]
387	[1028:1.0,1016:1.0,1010:1.0,90:1.0,928:1.0,879:1.0,792:1.0,763:1.0,762:1.0,751:1.0]
388	[879:1.0,2:1.0,550:1.0,546:1.0,12:1.0,11:1.0,527:1.0,31:1.0,515:1.0,496:1.0]
389	[1028:1.0,1016:1.0,919:1.0,129:1.0,895:1.0,879:1.0,866:1.0,826:1.0,781:1.0,751:1.0]
390	[879:1.0,546:1.0,288:1.0,11:1.0,25:1.0,527:1.0,514:1.0,508:1.0,496:1.0,483:1.0]
391	[1028:1.0,1011:1.0,879:1.0,845:1.0,763:1.0,762:1.0,751:1.0,750:1.0,742:1.0,739:1.0]
392	[1017:1.0,1016:1.0,1011:1.0,919:1.0,896:1.0,895:1.0,887:1.0,881:1.0,879:1.0,876:1.0]
393	[1011:1.0,988:1.0,946:1.0,928:1.0,902:1.0,900:1.0,898:1.0,895:1.0,887:1.0,886:1.0]
394	[1047:1.0,1028:1.0,1016:1.0,1011:1.0,1009:1.0,879:1.0,845:1.0,756:1.0,751:1.0,750:1.0]
395	[895:1.0,550:1.0,9:1.0,546:1.0,11:1.0,527:1.0,31:1.0,523:1.0,514:1.0,511:1.0]
396	[845:1.0,550:1.0,11:1.0,31:1.0,38:1.0,508:1.0,496:1.0,62:1.0,1047:1.0,71:1.0]
397	[1016:1.0,984:1.0,937:1.0,895:1.0,890:1.0,887:1.0,881:1.0,880:1.0,879:1.0,877:1.0]
398	[1047:1.0,1028:1.0,866:1.0,845:1.0,781:1.0,763:1.0,748:1.0,746:1.0,742:1.0,739:1.0]
399	[1028:1.0,1016:1.0,1014:1.0,1011:1.0,939:1.0,895:1.0,879:1.0,878:1.0,877:1.0,876:1.0]
400	[628:1.0,546:1.0,568:1.0,515:1.0,508:1.0,483:1.0,475:1.0,471:1.0,322:1.0,98:1.0]
401	[1028:1.0,934:1.0,895:1.0,879:1.0,845:1.0,763:1.0,756:1.0,750:1.0,742:1.0,739:1.0]
402	[550:1.0,546:1.0,288:1.0,11:1.0,531:1.0,527:1.0,31:1.0,523:1.0,514:1.0,508:1.0]
403	[831:1.0,550:1.0,568:1.0,527:1.0,588:1.0,508:1.0,496:1.0,483:1.0,628:1.0,475:1.0]
404	[895:1.0,550:1.0,9:1.0,546:1.0,538:1.0,11:1.0,527:1.0,515:1.0,508:1.0,496:1.0]
405	[1598:1.0,1431:1.0,1393:1.0,1390:1.0,1389:1.0,1388:1.0,1386:1.0,1385:1.0,1383:1.0,1380:1.0]
406	[1028:1.0,1016:1.0,1011:1.0,928:1.0,926:1.0,866:1.0,855:1.0,792:1.0,763:1.0,762:1.0]
407	[1016:1.0,1014:1.0,866:1.0,845:1.0,815:1.0,781:1.0,763:1.0,762:1.0,751:1.0,750:1.0]
408	[879:1.0,546:1.0,568:1.0,515:1.0,508:1.0,71:1.0,483:1.0,475:1.0,471:1.0,98:1.0]
409	[1038:1.0,1028:1.0,1026:1.0,1025:1.0,1022:1.0,11:1.0,1014:1.0,1012:1.0,1011:1.0,1010:1.0]
410	[546:1.0,568:1.0,288:1.0,515:1.0,508:1.0,483:1.0,628:1.0,475:1.0,471:1.0,322:1.0]
411	[2:1.0,554:1.0,550:1.0,546:1.0,288:1.0,11:1.0,25:1.0,31:1.0,523:1.0,515:1.0]
412	[739:1.0,2:1.0,550:1.0,546:1.0,566:1.0,568:1.0,582:1.0,527:1.0,523:1.0,588:1.0]
413	[748:1.0,546:1.0,288:1.0,11:1.0,531:1.0,582:1.0,527:1.0,588:1.0,514:1.0,511:1.0]
414	[742:1.0,546:1.0,508:1.0,496:1.0,483:1.0,628:1.0,475:1.0,471:1.0,322:1.0,98:1.0]
415	[550:1.0,9:1.0,546:1.0,11:1.0,25:1.0,527:1.0,526:1.0,523:1.0,515:1.0,514:1.0]
416	[1047:1.0,1028:1.0,1025:1.0,989:1.0,988:1.0,949:1.0,948:1.0,919:1.0,896:1.0,890:1.0]
417	[8:1.0,1012:1.0,926:1.0,143:1.0,879:1.0,866:1.0,193:1.0,845:1.0,820:1.0,790:1.0]
418	[882:1.0,9:1.0,546:1.0,568:1.0,515:1.0,508:1.0,483:1.0,475:1.0,471:1.0,322:1.0]
419	[751:1.0,546:1.0,566:1.0,288:1.0,11:1.0,25:1.0,527:1.0,526:1.0,523:1.0,521:1.0]
420	[751:1.0,546:1.0,11:1.0,25:1.0,531:1.0,529:1.0,528:1.0,527:1.0,523:1.0,520:1.0]
421	[550:1.0,9:1.0,546:1.0,25:1.0,527:1.0,31:1.0,523:1.0,521:1.0,515:1.0,514:1.0]
422	[1047:1.0,1028:1.0,1016:1.0,1014:1.0,1012:1.0,1011:1.0,928:1.0,895:1.0,887:1.0,879:1.0]
423	[880:1.0,550:1.0,288:1.0,11:1.0,25:1.0,527:1.0,31:1.0,515:1.0,496:1.0,1047:1.0]
424	[546:1.0,11:1.0,527:1.0,523:1.0,515:1.0,514:1.0,511:1.0,498:1.0,496:1.0,71:1.0]
425	[1047:1.0,1028:1.0,1014:1.0,71:1.0,919:1.0,887:1.0,876:1.0,873:1.0,845:1.0,820:1.0]
426	[879:1.0,751:1.0,750:1.0,748:1.0,742:1.0,739:1.0,735:1.0,732:1.0,699:1.0,692:1.0]
427	[683:1.0,546:1.0,538:1.0,11:1.0,515:1.0,508:1.0,125:1.0,71:1.0,483:1.0,479:1.0]
428	[880:1.0,9:1.0,546:1.0,11:1.0,25:1.0,531:1.0,515:1.0,508:1.0,1047:1.0,71:1.0]
429	[1025:1.0,923:1.0,895:1.0,879:1.0,866:1.0,815:1.0,792:1.0,790:1.0,781:1.0,751:1.0]
430	[1028:1.0,1016:1.0,1014:1.0,1012:1.0,1009:1.0,919:1.0,879:1.0,845:1.0,751:1.0,750:1.0]
431	[751:1.0,546:1.0,288:1.0,11:1.0,515:1.0,508:1.0,483:1.0,628:1.0,475:1.0,472:1.0]
432	[748:1.0,550:1.0,566:1.0,11:1.0,515:1.0,307:1.0,496:1.0,483:1.0,476:1.0,472:1.0]
433	[9:1.0,546:1.0,288:1.0,11:1.0,25:1.0,531:1.0,527:1.0,31:1.0,523:1.0,515:1.0]
434	[1028:1.0,550:1.0,11:1.0,25:1.0,527:1.0,31:1.0,508:1.0,496:1.0,1047:1.0,71:1.0]
435	[887:1.0,881:1.0,880:1.0,879:1.0,876:1.0,872:1.0,866:1.0,864:1.0,815:1.0,750:1.0]
436	[1047:1.0,1016:1.0,930:1.0,879:1.0,866:1.0,831:1.0,826:1.0,820:1.0,815:1.0,781:1.0]
437	[1028:1.0,1016:1.0,24:1.0,1014:1.0,59:1.0,895:1.0,879:1.0,845:1.0,223:1.0,792:1.0]
438	[732:1.0,546:1.0,568:1.0,288:1.0,515:1.0,508:1.0,496:1.0,1047:1.0,483:1.0,628:1.0]
439	[566:1.0,546:1.0,11:1.0,25:1.0,531:1.0,515:1.0,514:1.0,508:1.0,496:1.0,1047:1.0]
440	[1014:1.0,1012:1.0,991:1.0,990:1.0,989:1.0,984:1.0,955:1.0,938:1.0,908:1.0,906:1.0]
441	[546:1.0,11:1.0,508:1.0,496:1.0,71:1.0,483:1.0,319:1.0,475:1.0,472:1.0,471:1.0]
442	[1047:1.0,1028:1.0,1016:1.0,1011:1.0,895:1.0,879:1.0,866:1.0,845:1.0,831:1.0,820:1.0]
443	[742:1.0,546:1.0,566:1.0,288:1.0,11:1.0,527:1.0,523:1.0,515:1.0,514:1.0,511:1.0]
444	[750:1.0,550:1.0,546:1.0,566:1.0,288:1.0,11:1.0,531:1.0,582:1.0,527:1.0,523:1.0]
445	[8:1.0,1028:1.0,1025:1.0,1007:1.0,42:1.0,990:1.0,988:1.0,975:1.0,559:1.0,948:1.0]
446	[546:1.0,11:1.0,515:1.0,514:1.0,511:1.0,508:1.0,71:1.0,483:1.0,479:1.0,475:1.0]
447	[1014:1.0,1011:1.0,930:1.0,928:1.0,831:1.0,826:1.0,820:1.0,763:1.0,756:1.0,751:1.0]
448	[903:1.0,546:1.0,13:1.0,11:1.0,25:1.0,531:1.0,523:1.0,520:1.0,515:1.0,514:1.0]
449	[8:1.0,1028:1.0,1022:1.0,1016:1.0,940:1.0,934:1.0,933:1.0,932:1.0,931:1.0,930:1.0]
450	[1016:1.0,1014:1.0,1011:1.0,988:1.0,898:1.0,896:1.0,895:1.0,887:1.0,886:1.0,881:1.0]
451	[1047:1.0,1024:1.0,1016:1.0,1012:1.0,908:1.0,902:1.0,900:1.0,898:1.0,896:1.0,895:1.0]
452	[1028:1.0,1016:1.0,1014:1.0,28:1.0,1007:1.0,937:1.0,936:1.0,926:1.0,902:1.0,887:1.0]
453	[1028:1.0,1012:1.0,928:1.0,926:1.0,895:1.0,879:1.0,866:1.0,845:1.0,820:1.0,756:1.0]
454	[1047:1.0,1028:1.0,1016:1.0,895:1.0,845:1.0,815:1.0,756:1.0,750:1.0,749:1.0,739:1.0]
455	[1016:1.0,1012:1.0,995:1.0,919:1.0,895:1.0,887:1.0,880:1.0,879:1.0,866:1.0,847:1.0]
456	[8:1.0,1028:1.0,1012:1.0,1011:1.0,20:1.0,28:1.0,62:1.0,928:1.0,926:1.0,879:1.0]
457	[1016:1.0,988:1.0,928:1.0,926:1.0,866:1.0,820:1.0,815:1.0,781:1.0,763:1.0,751:1.0]
458	[1028:1.0,1016:1.0,928:1.0,919:1.0,895:1.0,887:1.0,879:1.0,866:1.0,815:1.0,763:1.0]
459	[1028:1.0,991:1.0,990:1.0,988:1.0,984:1.0,937:1.0,928:1.0,895:1.0,887:1.0,881:1.0]
460	[546:1.0,544:1.0,11:1.0,23:1.0,25:1.0,531:1.0,529:1.0,527:1.0,31:1.0,514:1.0]
461	[550:1.0,546:1.0,568:1.0,288:1.0,25:1.0,515:1.0,514:1.0,508:1.0,496:1.0,71:1.0]
462	[742:1.0,550:1.0,546:1.0,566:1.0,568:1.0,527:1.0,511:1.0,508:1.0,496:1.0,483:1.0]
463	[1047:1.0,1016:1.0,1011:1.0,1008:1.0,28:1.0,934:1.0,928:1.0,924:1.0,919:1.0,900:1.0]
464	[9:1.0,546:1.0,11:1.0,25:1.0,531:1.0,527:1.0,523:1.0,514:1.0,511:1.0,508:1.0]
465	[550:1.0,9:1.0,546:1.0,11:1.0,25:1.0,527:1.0,526:1.0,523:1.0,521:1.0,520:1.0]
466	[1024:1.0,1022:1.0,1016:1.0,1062:1.0,906:1.0,905:1.0,904:1.0,903:1.0,900:1.0,896:1.0]
467	[751:1.0,550:1.0,9:1.0,546:1.0,568:1.0,531:1.0,515:1.0,508:1.0,496:1.0,1047:1.0]
468	[1028:1.0,1011:1.0,866:1.0,845:1.0,763:1.0,762:1.0,756:1.0,748:1.0,744:1.0,739:1.0]
469	[9:1.0,546:1.0,11:1.0,25:1.0,529:1.0,528:1.0,527:1.0,526:1.0,523:1.0,521:1.0]
470	[1012:1.0,550:1.0,11:1.0,25:1.0,531:1.0,527:1.0,31:1.0,515:1.0,514:1.0,511:1.0]
471	[1028:1.0,559:1.0,550:1.0,9:1.0,546:1.0,11:1.0,527:1.0,496:1.0,68:1.0,483:1.0]
472	[1028:1.0,1016:1.0,926:1.0,887:1.0,879:1.0,873:1.0,845:1.0,820:1.0,815:1.0,781:1.0]
473	[751:1.0,546:1.0,568:1.0,288:1.0,531:1.0,582:1.0,527:1.0,515:1.0,514:1.0,496:1.0]
474	[895:1.0,879:1.0,866:1.0,845:1.0,763:1.0,762:1.0,751:1.0,750:1.0,742:1.0,739:1.0]
475	[748:1.0,546:1.0,568:1.0,25:1.0,527:1.0,515:1.0,514:1.0,511:1.0,508:1.0,496:1.0]
476	[2:1.0,550:1.0,9:1.0,546:1.0,11:1.0,25:1.0,28:1.0,527:1.0,31:1.0,523:1.0]
477	[1028:1.0,2:1.0,550:1.0,9:1.0,288:1.0,11:1.0,527:1.0,31:1.0,515:1.0,508:1.0]
478	[1047:1.0,1028:1.0,1016:1.0,928:1.0,926:1.0,895:1.0,879:1.0,845:1.0,820:1.0,815:1.0]
479	[1047:1.0,1014:1.0,988:1.0,928:1.0,895:1.0,890:1.0,887:1.0,881:1.0,880:1.0,878:1.0]
480	[550:1.0,9:1.0,546:1.0,288:1.0,11:1.0,25:1.0,531:1.0,529:1.0,528:1.0,526:1.0]
481	[550:1.0,9:1.0,546:1.0,11:1.0,25:1.0,527:1.0,526:1.0,523:1.0,520:1.0,519:1.0]
482	[546:1.0,11:1.0,515:1.0,508:1.0,496:1.0,1047:1.0,71:1.0,483:1.0,476:1.0,475:1.0]
483	[2:1.0,550:1.0,546:1.0,288:1.0,11:1.0,25:1.0,531:1.0,527:1.0,526:1.0,523:1.0]
484	[1028:1.0,928:1.0,895:1.0,845:1.0,831:1.0,815:1.0,763:1.0,756:1.0,751:1.0,750:1.0]
485	[751:1.0,546:1.0,11:1.0,515:1.0,514:1.0,511:1.0,508:1.0,71:1.0,483:1.0,480:1.0]
486	[1038:1.0,8:1.0,1028:1.0,1025:1.0,1012:1.0,1009:1.0,1008:1.0,1007:1.0,992:1.0,991:1.0]
487	[1028:1.0,930:1.0,895:1.0,879:1.0,866:1.0,831:1.0,826:1.0,815:1.0,780:1.0,763:1.0]
488	[895:1.0,887:1.0,881:1.0,879:1.0,876:1.0,875:1.0,872:1.0,750:1.0,739:1.0,735:1.0]
489	[1047:1.0,1022:1.0,1016:1.0,1012:1.0,1011:1.0,990:1.0,938:1.0,937:1.0,916:1.0,909:1.0]
490	[546:1.0,13:1.0,288:1.0,11:1.0,25:1.0,531:1.0,527:1.0,523:1.0,514:1.0,511:1.0]
491	[9:1.0,546:1.0,11:1.0,25:1.0,531:1.0,527:1.0,523:1.0,520:1.0,519:1.0,515:1.0]
492	[550:1.0,9:1.0,546:1.0,11:1.0,25:1.0,529:1.0,526:1.0,520:1.0,519:1.0,517:1.0]
493	[1047:1.0,1028:1.0,1014:1.0,1012:1.0,988:1.0,928:1.0,895:1.0,887:1.0,880:1.0,873:1.0]
494	[546:1.0,288:1.0,11:1.0,25:1.0,527:1.0,523:1.0,521:1.0,515:1.0,511:1.0,508:1.0]
495	[1028:1.0,1047:1.0,939:1.0,845:1.0,780:1.0,763:1.0,756:1.0,755:1.0,748:1.0,746:1.0]
496	[1028:1.0,1047:1.0,1016:1.0,845:1.0,831:1.0,781:1.0,763:1.0,755:1.0,748:1.0,742:1.0]
497	[1028:1.0,939:1.0,879:1.0,845:1.0,831:1.0,820:1.0,756:1.0,755:1.0,751:1.0,742:1.0]
498	[1028:1.0,1047:1.0,1016:1.0,1012:1.0,1011:1.0,895:1.0,879:1.0,875:1.0,845:1.0,763:1.0]
499	[1016:1.0,916:1.0,900:1.0,895:1.0,881:1.0,880:1.0,877:1.0,872:1.0,845:1.0,751:1.0]
500	[1028:1.0,1016:1.0,1011:1.0,928:1.0,926:1.0,124:1.0,879:1.0,866:1.0,792:1.0,790:1.0]
501	[1012:1.0,550:1.0,9:1.0,11:1.0,531:1.0,527:1.0,515:1.0,514:1.0,496:1.0,1047:1.0]
502	[550:1.0,9:1.0,546:1.0,538:1.0,11:1.0,527:1.0,508:1.0,628:1.0,873:1.0,475:1.0]
503	[1028:1.0,1016:1.0,1012:1.0,895:1.0,887:1.0,879:1.0,845:1.0,815:1.0,763:1.0,762:1.0]
504	[2:1.0,7:1.0,8:1.0,1028:1.0,1016:1.0,1014:1.0,1011:1.0,895:1.0,887:1.0,880:1.0]
505	[895:1.0,879:1.0,873:1.0,845:1.0,751:1.0,750:1.0,739:1.0,735:1.0,732:1.0,699:1.0]
506	[1047:1.0,1028:1.0,988:1.0,895:1.0,881:1.0,879:1.0,877:1.0,876:1.0,875:1.0,845:1.0]
507	[880:1.0,550:1.0,9:1.0,546:1.0,11:1.0,515:1.0,508:1.0,496:1.0,1047:1.0,71:1.0]
508	[2:1.0,550:1.0,9:1.0,546:1.0,288:1.0,11:1.0,25:1.0,31:1.0,523:1.0,521:1.0]
509	[546:1.0,566:1.0,11:1.0,527:1.0,515:1.0,514:1.0,511:1.0,508:1.0,498:1.0,496:1.0]
510	[546:1.0,11:1.0,527:1.0,515:1.0,508:1.0,1047:1.0,71:1.0,315:1.0,319:1.0,475:1.0]
511	[546:1.0,11:1.0,515:1.0,508:1.0,71:1.0,315:1.0,483:1.0,476:1.0,475:1.0,875:1.0]
512	[550:1.0,9:1.0,546:1.0,31:1.0,515:1.0,514:1.0,511:1.0,508:1.0,496:1.0,71:1.0]
513	[732:1.0,550:1.0,9:1.0,568:1.0,527:1.0,508:1.0,496:1.0,1047:1.0,483:1.0,628:1.0]
514	[1028:1.0,1016:1.0,1012:1.0,1007:1.0,900:1.0,895:1.0,887:1.0,879:1.0,876:1.0,873:1.0]
515	[896:1.0,550:1.0,9:1.0,546:1.0,11:1.0,515:1.0,508:1.0,71:1.0,483:1.0,475:1.0]
516	[750:1.0,546:1.0,566:1.0,288:1.0,11:1.0,527:1.0,514:1.0,511:1.0,508:1.0,498:1.0]
517	[550:1.0,9:1.0,546:1.0,288:1.0,11:1.0,527:1.0,515:1.0,514:1.0,511:1.0,508:1.0]
518	[831:1.0,554:1.0,550:1.0,11:1.0,531:1.0,31:1.0,515:1.0,514:1.0,307:1.0,496:1.0]
519	[1432:1.0,8:1.0,1025:1.0,1024:1.0,1022:1.0,1019:1.0,1016:1.0,1011:1.0,1005:1.0,995:1.0]
520	[739:1.0,546:1.0,538:1.0,11:1.0,288:1.0,515:1.0,508:1.0,496:1.0,1047:1.0,71:1.0]
521	[1028:1.0,895:1.0,879:1.0,845:1.0,831:1.0,825:1.0,750:1.0,739:1.0,705:1.0,692:1.0]
522	[657:1.0,550:1.0,546:1.0,566:1.0,528:1.0,527:1.0,526:1.0,517:1.0,515:1.0,511:1.0]
523	[1028:1.0,1016:1.0,1007:1.0,82:1.0,936:1.0,926:1.0,887:1.0,886:1.0,880:1.0,879:1.0]
524	[8:1.0,9:1.0,1028:1.0,1016:1.0,1011:1.0,960:1.0,923:1.0,879:1.0,789:1.0,763:1.0]
525	[1028:1.0,550:1.0,546:1.0,566:1.0,568:1.0,582:1.0,527:1.0,515:1.0,514:1.0,508:1.0]
526	[9:1.0,546:1.0,11:1.0,25:1.0,531:1.0,515:1.0,496:1.0,1047:1.0,71:1.0,483:1.0]
527	[847:1.0,845:1.0,792:1.0,748:1.0,742:1.0,739:1.0,735:1.0,732:1.0,705:1.0,692:1.0]
528	[2:1.0,550:1.0,9:1.0,546:1.0,288:1.0,11:1.0,25:1.0,527:1.0,515:1.0,514:1.0]
529	[546:1.0,11:1.0,515:1.0,508:1.0,315:1.0,483:1.0,628:1.0,479:1.0,475:1.0,472:1.0]
530	[550:1.0,9:1.0,546:1.0,288:1.0,25:1.0,531:1.0,31:1.0,11:1.0,523:1.0,520:1.0]
531	[880:1.0,9:1.0,546:1.0,538:1.0,11:1.0,515:1.0,508:1.0,71:1.0,483:1.0,475:1.0]
532	[1028:1.0,1025:1.0,1014:1.0,989:1.0,988:1.0,53:1.0,984:1.0,977:1.0,80:1.0,948:1.0]
533	[1014:1.0,928:1.0,926:1.0,895:1.0,887:1.0,880:1.0,831:1.0,826:1.0,825:1.0,815:1.0]
534	[845:1.0,554:1.0,2:1.0,550:1.0,9:1.0,544:1.0,11:1.0,31:1.0,515:1.0,496:1.0]
535	[1028:1.0,1047:1.0,879:1.0,855:1.0,845:1.0,763:1.0,751:1.0,750:1.0,748:1.0,746:1.0]
536	[1047:1.0,1028:1.0,879:1.0,845:1.0,781:1.0,756:1.0,751:1.0,748:1.0,742:1.0,739:1.0]
537	[1047:1.0,1028:1.0,1016:1.0,995:1.0,989:1.0,908:1.0,902:1.0,900:1.0,898:1.0,895:1.0]
538	[739:1.0,2:1.0,550:1.0,9:1.0,546:1.0,288:1.0,582:1.0,523:1.0,521:1.0,515:1.0]
539	[550:1.0,9:1.0,546:1.0,11:1.0,25:1.0,528:1.0,31:1.0,523:1.0,520:1.0,519:1.0]
540	[550:1.0,546:1.0,288:1.0,11:1.0,527:1.0,31:1.0,496:1.0,1047:1.0,71:1.0,483:1.0]
541	[1028:1.0,1016:1.0,926:1.0,879:1.0,866:1.0,845:1.0,815:1.0,790:1.0,780:1.0,762:1.0]
542	[1047:1.0,1028:1.0,1016:1.0,1012:1.0,928:1.0,926:1.0,895:1.0,879:1.0,845:1.0,815:1.0]
543	[1028:1.0,1047:1.0,1021:1.0,1016:1.0,923:1.0,879:1.0,847:1.0,845:1.0,825:1.0,779:1.0]
544	[751:1.0,546:1.0,568:1.0,515:1.0,508:1.0,483:1.0,628:1.0,319:1.0,475:1.0,472:1.0]
545	[1016:1.0,988:1.0,895:1.0,879:1.0,877:1.0,876:1.0,845:1.0,831:1.0,763:1.0,755:1.0]
546	[1028:1.0,879:1.0,873:1.0,845:1.0,831:1.0,820:1.0,763:1.0,750:1.0,748:1.0,742:1.0]
547	[748:1.0,546:1.0,11:1.0,515:1.0,508:1.0,483:1.0,628:1.0,479:1.0,475:1.0,471:1.0]
548	[1028:1.0,1012:1.0,988:1.0,984:1.0,926:1.0,902:1.0,900:1.0,896:1.0,895:1.0,886:1.0]
549	[751:1.0,550:1.0,546:1.0,566:1.0,11:1.0,527:1.0,508:1.0,496:1.0,483:1.0,628:1.0]
550	[751:1.0,550:1.0,9:1.0,546:1.0,11:1.0,527:1.0,515:1.0,508:1.0,496:1.0,1047:1.0]
551	[8:1.0,1016:1.0,928:1.0,916:1.0,887:1.0,880:1.0,879:1.0,876:1.0,873:1.0,866:1.0]
552	[1012:1.0,9:1.0,546:1.0,11:1.0,527:1.0,31:1.0,38:1.0,514:1.0,508:1.0,496:1.0]
553	[550:1.0,9:1.0,546:1.0,288:1.0,11:1.0,25:1.0,529:1.0,526:1.0,521:1.0,517:1.0]
554	[2:1.0,554:1.0,550:1.0,25:1.0,38:1.0,515:1.0,514:1.0,511:1.0,508:1.0,501:1.0]
555	[550:1.0,9:1.0,11:1.0,527:1.0,523:1.0,515:1.0,514:1.0,511:1.0,508:1.0,507:1.0]
556	[751:1.0,9:1.0,546:1.0,11:1.0,529:1.0,528:1.0,527:1.0,521:1.0,519:1.0,515:1.0]
557	[882:1.0,550:1.0,9:1.0,546:1.0,11:1.0,25:1.0,531:1.0,527:1.0,31:1.0,523:1.0]
558	[748:1.0,546:1.0,11:1.0,25:1.0,531:1.0,515:1.0,514:1.0,511:1.0,496:1.0,483:1.0]
559	[988:1.0,959:1.0,895:1.0,887:1.0,879:1.0,845:1.0,751:1.0,750:1.0,748:1.0,746:1.0]
560	[1028:1.0,1047:1.0,1012:1.0,1011:1.0,995:1.0,924:1.0,919:1.0,887:1.0,880:1.0,879:1.0]
561	[1028:1.0,1022:1.0,1016:1.0,1011:1.0,995:1.0,990:1.0,919:1.0,909:1.0,902:1.0,900:1.0]
562	[2:1.0,9:1.0,546:1.0,11:1.0,25:1.0,527:1.0,526:1.0,523:1.0,521:1.0,515:1.0]
563	[732:1.0,2:1.0,550:1.0,546:1.0,288:1.0,11:1.0,31:1.0,508:1.0,496:1.0,1047:1.0]
564	[880:1.0,550:1.0,9:1.0,546:1.0,288:1.0,11:1.0,515:1.0,508:1.0,496:1.0,1047:1.0]
565	[546:1.0,288:1.0,11:1.0,25:1.0,531:1.0,529:1.0,528:1.0,527:1.0,523:1.0,521:1.0]
566	[1047:1.0,1016:1.0,971:1.0,855:1.0,845:1.0,756:1.0,751:1.0,750:1.0,748:1.0,746:1.0]
567	[1016:1.0,895:1.0,887:1.0,879:1.0,874:1.0,845:1.0,763:1.0,751:1.0,750:1.0,748:1.0]
568	[879:1.0,751:1.0,750:1.0,748:1.0,742:1.0,739:1.0,732:1.0,705:1.0,690:1.0,684:1.0]
569	[751:1.0,550:1.0,566:1.0,568:1.0,531:1.0,31:1.0,515:1.0,514:1.0,496:1.0,1047:1.0]
570	[546:1.0,11:1.0,515:1.0,508:1.0,71:1.0,483:1.0,475:1.0,471:1.0,322:1.0,98:1.0]
571	[566:1.0,546:1.0,11:1.0,25:1.0,527:1.0,523:1.0,519:1.0,515:1.0,514:1.0,511:1.0]
572	[582:1.0,546:1.0,568:1.0,288:1.0,23:1.0,531:1.0,529:1.0,515:1.0,514:1.0,508:1.0]
573	[550:1.0,9:1.0,546:1.0,11:1.0,25:1.0,527:1.0,526:1.0,521:1.0,520:1.0,517:1.0]
574	[906:1.0,546:1.0,11:1.0,25:1.0,531:1.0,515:1.0,514:1.0,511:1.0,509:1.0,508:1.0]
575	[690:1.0,550:1.0,546:1.0,566:1.0,568:1.0,288:1.0,25:1.0,527:1.0,523:1.0,515:1.0]
576	[692:1.0,546:1.0,566:1.0,288:1.0,11:1.0,25:1.0,527:1.0,523:1.0,515:1.0,511:1.0]
577	[1016:1.0,1011:1.0,934:1.0,930:1.0,928:1.0,926:1.0,879:1.0,864:1.0,831:1.0,820:1.0]
578	[748:1.0,9:1.0,546:1.0,11:1.0,508:1.0,496:1.0,71:1.0,483:1.0,480:1.0,475:1.0]
579	[2:1.0,550:1.0,9:1.0,546:1.0,11:1.0,527:1.0,31:1.0,521:1.0,515:1.0,511:1.0]
580	[550:1.0,566:1.0,568:1.0,508:1.0,496:1.0,1047:1.0,483:1.0,628:1.0,476:1.0,475:1.0]
581	[1:1.0,546:1.0,288:1.0,11:1.0,25:1.0,531:1.0,527:1.0,523:1.0,514:1.0,511:1.0]
582	[845:1.0,550:1.0,9:1.0,546:1.0,11:1.0,515:1.0,496:1.0,1047:1.0,71:1.0,483:1.0]
583	[739:1.0,550:1.0,546:1.0,566:1.0,11:1.0,25:1.0,528:1.0,527:1.0,526:1.0,523:1.0]
584	[732:1.0,554:1.0,559:1.0,550:1.0,546:1.0,566:1.0,11:1.0,527:1.0,514:1.0,511:1.0]
585	[1022:1.0,1017:1.0,1012:1.0,1011:1.0,1010:1.0,1008:1.0,1007:1.0,995:1.0,975:1.0,960:1.0]
586	[1028:1.0,1016:1.0,879:1.0,866:1.0,845:1.0,831:1.0,826:1.0,802:1.0,748:1.0,746:1.0]
587	[8:1.0,1025:1.0,1016:1.0,1012:1.0,990:1.0,984:1.0,948:1.0,915:1.0,908:1.0,900:1.0]
588	[2:1.0,1028:1.0,1016:1.0,926:1.0,895:1.0,879:1.0,875:1.0,866:1.0,864:1.0,845:1.0]
589	[9:1.0,546:1.0,11:1.0,515:1.0,508:1.0,71:1.0,483:1.0,476:1.0,475:1.0,473:1.0]
590	[288:1.0,11:1.0,25:1.0,531:1.0,527:1.0,514:1.0,511:1.0,508:1.0,307:1.0,498:1.0]
591	[879:1.0,855:1.0,845:1.0,815:1.0,763:1.0,756:1.0,751:1.0,748:1.0,746:1.0,742:1.0]
592	[1028:1.0,1007:1.0,990:1.0,989:1.0,937:1.0,928:1.0,926:1.0,923:1.0,902:1.0,896:1.0]
593	[928:1.0,879:1.0,756:1.0,755:1.0,751:1.0,750:1.0,748:1.0,729:1.0,717:1.0,705:1.0]
594	[750:1.0,546:1.0,566:1.0,568:1.0,288:1.0,25:1.0,531:1.0,527:1.0,523:1.0,514:1.0]
595	[1016:1.0,1014:1.0,1012:1.0,1011:1.0,988:1.0,977:1.0,931:1.0,924:1.0,919:1.0,895:1.0]
596	[751:1.0,546:1.0,11:1.0,515:1.0,508:1.0,496:1.0,1047:1.0,71:1.0,483:1.0,475:1.0]
597	[550:1.0,9:1.0,546:1.0,538:1.0,11:1.0,25:1.0,531:1.0,527:1.0,515:1.0,508:1.0]
598	[550:1.0,546:1.0,566:1.0,11:1.0,515:1.0,508:1.0,483:1.0,628:1.0,873:1.0,475:1.0]
599	[880:1.0,9:1.0,31:1.0,11:1.0,38:1.0,496:1.0,1047:1.0,71:1.0,483:1.0,477:1.0]
600	[549:1.0,9:1.0,546:1.0,25:1.0,527:1.0,523:1.0,514:1.0,501:1.0,498:1.0,496:1.0]
601	[1016:1.0,930:1.0,926:1.0,879:1.0,866:1.0,845:1.0,831:1.0,815:1.0,756:1.0,755:1.0]
602	[689:1.0,546:1.0,288:1.0,11:1.0,527:1.0,515:1.0,496:1.0,1047:1.0,71:1.0,483:1.0]
603	[2:1.0,554:1.0,550:1.0,9:1.0,546:1.0,527:1.0,31:1.0,523:1.0,520:1.0,515:1.0]
604	[739:1.0,550:1.0,9:1.0,546:1.0,12:1.0,11:1.0,582:1.0,527:1.0,31:1.0,514:1.0]
605	[550:1.0,11:1.0,25:1.0,515:1.0,514:1.0,511:1.0,498:1.0,31:1.0,1047:1.0,71:1.0]
606	[1028:1.0,1014:1.0,930:1.0,895:1.0,879:1.0,877:1.0,876:1.0,873:1.0,866:1.0,831:1.0]
607	[9:1.0,546:1.0,11:1.0,25:1.0,531:1.0,527:1.0,523:1.0,521:1.0,520:1.0,515:1.0]
608	[1028:1.0,919:1.0,895:1.0,887:1.0,879:1.0,875:1.0,845:1.0,792:1.0,762:1.0,751:1.0]
609	[880:1.0,546:1.0,11:1.0,523:1.0,515:1.0,508:1.0,496:1.0,1047:1.0,71:1.0,483:1.0]
610	[550:1.0,546:1.0,25:1.0,528:1.0,526:1.0,523:1.0,520:1.0,517:1.0,515:1.0,514:1.0]
611	[895:1.0,546:1.0,538:1.0,11:1.0,25:1.0,531:1.0,515:1.0,514:1.0,511:1.0,508:1.0]
612	[748:1.0,546:1.0,568:1.0,527:1.0,523:1.0,515:1.0,514:1.0,511:1.0,508:1.0,498:1.0]
613	[550:1.0,9:1.0,546:1.0,11:1.0,25:1.0,527:1.0,31:1.0,523:1.0,521:1.0,515:1.0]
614	[815:1.0,550:1.0,11:1.0,531:1.0,515:1.0,511:1.0,496:1.0,1047:1.0,71:1.0,483:1.0]
615	[895:1.0,887:1.0,881:1.0,879:1.0,876:1.0,875:1.0,873:1.0,845:1.0,751:1.0,750:1.0]
616	[751:1.0,550:1.0,546:1.0,568:1.0,582:1.0,515:1.0,508:1.0,71:1.0,483:1.0,475:1.0]
617	[1028:1.0,1011:1.0,919:1.0,898:1.0,895:1.0,879:1.0,878:1.0,845:1.0,844:1.0,831:1.0]
618	[1028:1.0,1016:1.0,928:1.0,866:1.0,845:1.0,756:1.0,751:1.0,750:1.0,748:1.0,747:1.0]
619	[831:1.0,2:1.0,9:1.0,527:1.0,31:1.0,523:1.0,514:1.0,511:1.0,508:1.0,496:1.0]
620	[1028:1.0,1016:1.0,941:1.0,879:1.0,866:1.0,845:1.0,831:1.0,816:1.0,794:1.0,763:1.0]
621	[1025:1.0,928:1.0,895:1.0,892:1.0,887:1.0,886:1.0,880:1.0,877:1.0,873:1.0,872:1.0]
622	[1028:1.0,1014:1.0,1011:1.0,946:1.0,928:1.0,926:1.0,895:1.0,815:1.0,762:1.0,748:1.0]
623	[739:1.0,550:1.0,9:1.0,546:1.0,568:1.0,582:1.0,527:1.0,526:1.0,521:1.0,515:1.0]
624	[1014:1.0,1011:1.0,1009:1.0,934:1.0,926:1.0,895:1.0,887:1.0,880:1.0,873:1.0,872:1.0]
625	[2:1.0,550:1.0,9:1.0,288:1.0,11:1.0,531:1.0,529:1.0,527:1.0,526:1.0,523:1.0]
626	[751:1.0,546:1.0,568:1.0,527:1.0,515:1.0,508:1.0,1047:1.0,483:1.0,628:1.0,476:1.0]
627	[1028:1.0,1016:1.0,879:1.0,845:1.0,763:1.0,751:1.0,748:1.0,746:1.0,742:1.0,739:1.0]
628	[880:1.0,546:1.0,538:1.0,11:1.0,527:1.0,515:1.0,508:1.0,496:1.0,71:1.0,483:1.0]
629	[1047:1.0,1028:1.0,1012:1.0,948:1.0,895:1.0,887:1.0,879:1.0,877:1.0,875:1.0,873:1.0]
630	[1028:1.0,1016:1.0,1014:1.0,928:1.0,926:1.0,879:1.0,831:1.0,763:1.0,762:1.0,751:1.0]
631	[546:1.0,11:1.0,508:1.0,71:1.0,483:1.0,319:1.0,475:1.0,471:1.0,322:1.0,98:1.0]
632	[9:1.0,546:1.0,526:1.0,515:1.0,514:1.0,511:1.0,501:1.0,498:1.0,496:1.0,31:1.0]
633	[2:1.0,550:1.0,9:1.0,546:1.0,191:1.0,11:1.0,25:1.0,527:1.0,31:1.0,514:1.0]
634	[1016:1.0,1012:1.0,930:1.0,928:1.0,926:1.0,895:1.0,887:1.0,880:1.0,879:1.0,831:1.0]
635	[689:1.0,546:1.0,568:1.0,288:1.0,515:1.0,508:1.0,496:1.0,483:1.0,628:1.0,476:1.0]
636	[748:1.0,546:1.0,288:1.0,11:1.0,582:1.0,527:1.0,515:1.0,508:1.0,496:1.0,1047:1.0]
637	[1047:1.0,1016:1.0,1014:1.0,1012:1.0,928:1.0,924:1.0,919:1.0,895:1.0,887:1.0,879:1.0]
638	[739:1.0,559:1.0,9:1.0,546:1.0,568:1.0,527:1.0,526:1.0,588:1.0,521:1.0,508:1.0]
639	[1028:1.0,1047:1.0,898:1.0,895:1.0,887:1.0,882:1.0,879:1.0,866:1.0,855:1.0,845:1.0]
640	[1047:1.0,1028:1.0,1011:1.0,928:1.0,898:1.0,895:1.0,879:1.0,876:1.0,873:1.0,866:1.0]
641	[9:1.0,546:1.0,288:1.0,11:1.0,25:1.0,531:1.0,529:1.0,527:1.0,523:1.0,521:1.0]
642	[1035:1.0,14:1.0,1016:1.0,24:1.0,977:1.0,941:1.0,930:1.0,879:1.0,170:1.0,866:1.0]
643	[866:1.0,781:1.0,763:1.0,748:1.0,747:1.0,746:1.0,742:1.0,735:1.0,705:1.0,692:1.0]
644	[880:1.0,550:1.0,9:1.0,288:1.0,11:1.0,845:1.0,527:1.0,515:1.0,508:1.0,496:1.0]
645	[879:1.0,751:1.0,750:1.0,742:1.0,739:1.0,735:1.0,732:1.0,715:1.0,705:1.0,693:1.0]
646	[872:1.0,9:1.0,546:1.0,538:1.0,11:1.0,515:1.0,508:1.0,71:1.0,483:1.0,475:1.0]
647	[2:1.0,550:1.0,9:1.0,546:1.0,11:1.0,25:1.0,527:1.0,526:1.0,523:1.0,521:1.0]
648	[8:1.0,1016:1.0,1014:1.0,988:1.0,53:1.0,137:1.0,900:1.0,896:1.0,880:1.0,879:1.0]
649	[748:1.0,550:1.0,9:1.0,546:1.0,11:1.0,527:1.0,31:1.0,515:1.0,508:1.0,496:1.0]
650	[1028:1.0,1047:1.0,1016:1.0,895:1.0,879:1.0,845:1.0,831:1.0,792:1.0,655:1.0,763:1.0]
651	[748:1.0,546:1.0,568:1.0,288:1.0,25:1.0,531:1.0,527:1.0,523:1.0,514:1.0,511:1.0]
652	[550:1.0,546:1.0,568:1.0,25:1.0,527:1.0,515:1.0,508:1.0,496:1.0,483:1.0,628:1.0]
653	[939:1.0,926:1.0,895:1.0,879:1.0,866:1.0,864:1.0,845:1.0,831:1.0,826:1.0,815:1.0]
654	[1047:1.0,1028:1.0,1012:1.0,1011:1.0,928:1.0,895:1.0,879:1.0,873:1.0,866:1.0,847:1.0]
655	[1434:1.0,1389:1.0,1047:1.0,1028:1.0,1025:1.0,1021:1.0,1013:1.0,993:1.0,990:1.0,989:1.0]
656	[748:1.0,546:1.0,11:1.0,25:1.0,531:1.0,515:1.0,508:1.0,483:1.0,479:1.0,475:1.0]
657	[748:1.0,546:1.0,568:1.0,288:1.0,25:1.0,515:1.0,496:1.0,483:1.0,476:1.0,472:1.0]
658	[550:1.0,546:1.0,191:1.0,11:1.0,25:1.0,526:1.0,523:1.0,521:1.0,514:1.0,512:1.0]
659	[1016:1.0,845:1.0,781:1.0,751:1.0,750:1.0,748:1.0,747:1.0,746:1.0,742:1.0,732:1.0]
660	[1028:1.0,1016:1.0,988:1.0,928:1.0,895:1.0,879:1.0,877:1.0,876:1.0,873:1.0,866:1.0]
661	[1028:1.0,1016:1.0,895:1.0,879:1.0,866:1.0,845:1.0,815:1.0,763:1.0,750:1.0,748:1.0]
662	[628:1.0,1142:1.0,9:1.0,546:1.0,288:1.0,11:1.0,25:1.0,531:1.0,527:1.0,514:1.0]
663	[8:1.0,1028:1.0,1016:1.0,1012:1.0,988:1.0,926:1.0,887:1.0,886:1.0,881:1.0,880:1.0]
664	[1028:1.0,879:1.0,763:1.0,756:1.0,751:1.0,750:1.0,748:1.0,742:1.0,739:1.0,709:1.0]
665	[1016:1.0,1014:1.0,1012:1.0,928:1.0,895:1.0,879:1.0,831:1.0,825:1.0,820:1.0,751:1.0]
666	[1101:1.0,1028:1.0,1016:1.0,928:1.0,926:1.0,895:1.0,879:1.0,845:1.0,815:1.0,763:1.0]
667	[546:1.0,11:1.0,25:1.0,531:1.0,523:1.0,521:1.0,515:1.0,514:1.0,511:1.0,508:1.0]
668	[2:1.0,550:1.0,9:1.0,546:1.0,11:1.0,25:1.0,527:1.0,515:1.0,514:1.0,508:1.0]
669	[1016:1.0,895:1.0,887:1.0,873:1.0,845:1.0,763:1.0,752:1.0,751:1.0,750:1.0,748:1.0]
670	[2:1.0,550:1.0,9:1.0,546:1.0,11:1.0,25:1.0,528:1.0,527:1.0,526:1.0,523:1.0]
671	[1028:1.0,1047:1.0,1016:1.0,930:1.0,928:1.0,879:1.0,845:1.0,831:1.0,826:1.0,823:1.0]
672	[748:1.0,546:1.0,288:1.0,11:1.0,527:1.0,514:1.0,508:1.0,307:1.0,496:1.0,1047:1.0]
673	[748:1.0,9:1.0,546:1.0,11:1.0,515:1.0,514:1.0,511:1.0,508:1.0,496:1.0,483:1.0]
674	[748:1.0,550:1.0,9:1.0,546:1.0,11:1.0,515:1.0,508:1.0,496:1.0,1047:1.0,483:1.0]
675	[903:1.0,546:1.0,11:1.0,25:1.0,527:1.0,515:1.0,511:1.0,508:1.0,498:1.0,496:1.0]
676	[1028:1.0,1016:1.0,988:1.0,908:1.0,905:1.0,900:1.0,898:1.0,896:1.0,887:1.0,886:1.0]
677	[683:1.0,2:1.0,550:1.0,9:1.0,546:1.0,11:1.0,25:1.0,515:1.0,496:1.0,1047:1.0]
678	[748:1.0,546:1.0,568:1.0,288:1.0,531:1.0,527:1.0,514:1.0,511:1.0,508:1.0,496:1.0]
679	[550:1.0,9:1.0,546:1.0,11:1.0,25:1.0,31:1.0,523:1.0,515:1.0,514:1.0,511:1.0]
680	[748:1.0,550:1.0,546:1.0,566:1.0,288:1.0,11:1.0,531:1.0,527:1.0,31:1.0,523:1.0]
681	[882:1.0,546:1.0,11:1.0,520:1.0,515:1.0,508:1.0,210:1.0,483:1.0,628:1.0,475:1.0]
682	[1025:1.0,989:1.0,988:1.0,928:1.0,926:1.0,919:1.0,887:1.0,886:1.0,880:1.0,879:1.0]
683	[1028:1.0,1016:1.0,988:1.0,916:1.0,903:1.0,902:1.0,898:1.0,896:1.0,886:1.0,882:1.0]
684	[2:1.0,554:1.0,550:1.0,9:1.0,546:1.0,288:1.0,11:1.0,25:1.0,28:1.0,527:1.0]
685	[751:1.0,546:1.0,515:1.0,508:1.0,315:1.0,483:1.0,479:1.0,475:1.0,471:1.0,876:1.0]
686	[550:1.0,9:1.0,546:1.0,25:1.0,526:1.0,523:1.0,515:1.0,511:1.0,508:1.0,501:1.0]
687	[546:1.0,11:1.0,515:1.0,508:1.0,1047:1.0,483:1.0,628:1.0,475:1.0,472:1.0,471:1.0]
688	[880:1.0,550:1.0,546:1.0,13:1.0,538:1.0,11:1.0,515:1.0,508:1.0,1062:1.0,125:1.0]
689	[751:1.0,9:1.0,546:1.0,288:1.0,11:1.0,588:1.0,508:1.0,496:1.0,1047:1.0,483:1.0]
690	[2:1.0,550:1.0,288:1.0,11:1.0,28:1.0,527:1.0,31:1.0,521:1.0,515:1.0,511:1.0]
691	[550:1.0,9:1.0,546:1.0,11:1.0,25:1.0,527:1.0,526:1.0,523:1.0,521:1.0,520:1.0]
692	[751:1.0,546:1.0,566:1.0,568:1.0,288:1.0,527:1.0,515:1.0,514:1.0,511:1.0,498:1.0]
693	[1028:1.0,1016:1.0,879:1.0,845:1.0,763:1.0,751:1.0,750:1.0,748:1.0,739:1.0,732:1.0]
694	[845:1.0,755:1.0,748:1.0,742:1.0,739:1.0,735:1.0,732:1.0,685:1.0,655:1.0,651:1.0]
695	[546:1.0,538:1.0,11:1.0,25:1.0,531:1.0,515:1.0,511:1.0,508:1.0,71:1.0,483:1.0]
696	[903:1.0,546:1.0,288:1.0,11:1.0,531:1.0,527:1.0,521:1.0,515:1.0,514:1.0,511:1.0]
697	[1028:1.0,1016:1.0,1014:1.0,1011:1.0,991:1.0,988:1.0,984:1.0,926:1.0,887:1.0,880:1.0]
698	[1028:1.0,1016:1.0,895:1.0,879:1.0,845:1.0,815:1.0,756:1.0,750:1.0,748:1.0,742:1.0]
699	[1047:1.0,22:1.0,1016:1.0,1014:1.0,1012:1.0,1008:1.0,1007:1.0,988:1.0,984:1.0,938:1.0]
700	[276:1.0,275:1.0,273:1.0,550:1.0,546:1.0,9:1.0,11:1.0,265:1.0,258:1.0,257:1.0]
701	[748:1.0,546:1.0,568:1.0,288:1.0,531:1.0,582:1.0,527:1.0,515:1.0,514:1.0,511:1.0]
702	[550:1.0,9:1.0,546:1.0,11:1.0,515:1.0,508:1.0,496:1.0,71:1.0,483:1.0,475:1.0]
703	[751:1.0,546:1.0,566:1.0,11:1.0,527:1.0,515:1.0,307:1.0,496:1.0,483:1.0,477:1.0]
704	[900:1.0,896:1.0,895:1.0,887:1.0,879:1.0,845:1.0,837:1.0,751:1.0,750:1.0,748:1.0]
705	[1047:1.0,1028:1.0,1016:1.0,866:1.0,845:1.0,831:1.0,785:1.0,781:1.0,768:1.0,763:1.0]
706	[751:1.0,546:1.0,568:1.0,588:1.0,508:1.0,496:1.0,1047:1.0,483:1.0,476:1.0,475:1.0]
707	[1028:1.0,1016:1.0,1014:1.0,1012:1.0,1011:1.0,1009:1.0,62:1.0,942:1.0,98:1.0,928:1.0]
708	[1025:1.0,1016:1.0,1014:1.0,1012:1.0,988:1.0,984:1.0,948:1.0,928:1.0,895:1.0,881:1.0]
709	[9:1.0,12:1.0,25:1.0,527:1.0,31:1.0,523:1.0,514:1.0,511:1.0,498:1.0,496:1.0]
710	[988:1.0,895:1.0,881:1.0,880:1.0,879:1.0,877:1.0,876:1.0,872:1.0,845:1.0,750:1.0]
711	[1028:1.0,1047:1.0,1022:1.0,1016:1.0,1011:1.0,934:1.0,924:1.0,904:1.0,903:1.0,902:1.0]
712	[1035:1.0,1028:1.0,926:1.0,866:1.0,845:1.0,815:1.0,795:1.0,780:1.0,763:1.0,756:1.0]
713	[909:1.0,550:1.0,549:1.0,9:1.0,546:1.0,13:1.0,538:1.0,11:1.0,523:1.0,520:1.0]
714	[628:1.0,550:1.0,546:1.0,566:1.0,568:1.0,288:1.0,508:1.0,496:1.0,1047:1.0,483:1.0]
715	[1028:1.0,928:1.0,866:1.0,845:1.0,831:1.0,820:1.0,763:1.0,748:1.0,742:1.0,717:1.0]
716	[1028:1.0,926:1.0,845:1.0,763:1.0,756:1.0,751:1.0,748:1.0,742:1.0,739:1.0,709:1.0]
717	[1012:1.0,550:1.0,9:1.0,227:1.0,11:1.0,23:1.0,531:1.0,527:1.0,515:1.0,514:1.0]
718	[692:1.0,550:1.0,566:1.0,288:1.0,11:1.0,31:1.0,515:1.0,508:1.0,496:1.0,483:1.0]
719	[550:1.0,546:1.0,288:1.0,11:1.0,25:1.0,527:1.0,526:1.0,523:1.0,515:1.0,514:1.0]
720	[880:1.0,546:1.0,538:1.0,11:1.0,25:1.0,531:1.0,523:1.0,520:1.0,288:1.0,515:1.0]
721	[1038:1.0,1395:1.0,1028:1.0,1047:1.0,1022:1.0,1016:1.0,1012:1.0,898:1.0,895:1.0,890:1.0]
722	[655:1.0,550:1.0,566:1.0,568:1.0,288:1.0,582:1.0,515:1.0,496:1.0,1047:1.0,71:1.0]
723	[742:1.0,546:1.0,566:1.0,11:1.0,527:1.0,515:1.0,514:1.0,508:1.0,496:1.0,483:1.0]
724	[8:1.0,1025:1.0,1024:1.0,1022:1.0,1016:1.0,355:1.0,1012:1.0,1005:1.0,991:1.0,990:1.0]
725	[751:1.0,546:1.0,11:1.0,515:1.0,508:1.0,496:1.0,71:1.0,483:1.0,476:1.0,475:1.0]
726	[748:1.0,550:1.0,9:1.0,546:1.0,568:1.0,288:1.0,508:1.0,307:1.0,496:1.0,1047:1.0]
727	[1012:1.0,934:1.0,895:1.0,877:1.0,876:1.0,873:1.0,864:1.0,1228:1.0,825:1.0,781:1.0]
728	[582:1.0,9:1.0,288:1.0,11:1.0,531:1.0,515:1.0,514:1.0,496:1.0,1047:1.0,71:1.0]
729	[739:1.0,546:1.0,566:1.0,568:1.0,538:1.0,508:1.0,628:1.0,475:1.0,471:1.0,1016:1.0]
730	[546:1.0,566:1.0,568:1.0,288:1.0,515:1.0,508:1.0,496:1.0,1047:1.0,71:1.0,483:1.0]
731	[550:1.0,9:1.0,546:1.0,288:1.0,11:1.0,25:1.0,531:1.0,528:1.0,526:1.0,525:1.0]
732	[748:1.0,546:1.0,538:1.0,11:1.0,515:1.0,508:1.0,315:1.0,483:1.0,628:1.0,475:1.0]
733	[1379:1.0,8:1.0,1028:1.0,1016:1.0,1014:1.0,1012:1.0,1007:1.0,47:1.0,926:1.0,919:1.0]
734	[550:1.0,9:1.0,546:1.0,11:1.0,25:1.0,531:1.0,529:1.0,527:1.0,31:1.0,523:1.0]
735	[546:1.0,568:1.0,531:1.0,582:1.0,527:1.0,514:1.0,508:1.0,496:1.0,1047:1.0,71:1.0]
736	[550:1.0,9:1.0,546:1.0,288:1.0,11:1.0,527:1.0,514:1.0,511:1.0,508:1.0,498:1.0]
737	[654:1.0,550:1.0,9:1.0,546:1.0,582:1.0,527:1.0,31:1.0,523:1.0,515:1.0,514:1.0]
738	[9:1.0,546:1.0,288:1.0,11:1.0,526:1.0,523:1.0,521:1.0,520:1.0,515:1.0,514:1.0]
739	[882:1.0,550:1.0,9:1.0,546:1.0,11:1.0,527:1.0,523:1.0,514:1.0,511:1.0,508:1.0]
740	[875:1.0,546:1.0,11:1.0,515:1.0,508:1.0,71:1.0,315:1.0,483:1.0,475:1.0,471:1.0]
741	[2:1.0,554:1.0,550:1.0,9:1.0,546:1.0,11:1.0,527:1.0,523:1.0,514:1.0,511:1.0]
742	[582:1.0,550:1.0,9:1.0,568:1.0,515:1.0,514:1.0,496:1.0,71:1.0,483:1.0,476:1.0]
743	[882:1.0,546:1.0,568:1.0,515:1.0,514:1.0,508:1.0,496:1.0,71:1.0,483:1.0,479:1.0]
744	[732:1.0,546:1.0,568:1.0,288:1.0,25:1.0,527:1.0,523:1.0,515:1.0,514:1.0,511:1.0]
745	[550:1.0,546:1.0,11:1.0,25:1.0,528:1.0,526:1.0,523:1.0,521:1.0,514:1.0,511:1.0]
746	[748:1.0,554:1.0,11:1.0,527:1.0,588:1.0,515:1.0,514:1.0,511:1.0,508:1.0,498:1.0]
747	[1016:1.0,1011:1.0,59:1.0,919:1.0,131:1.0,895:1.0,880:1.0,879:1.0,878:1.0,877:1.0]
748	[550:1.0,9:1.0,546:1.0,288:1.0,11:1.0,25:1.0,526:1.0,523:1.0,521:1.0,520:1.0]
749	[1014:1.0,1012:1.0,928:1.0,926:1.0,924:1.0,895:1.0,831:1.0,827:1.0,825:1.0,820:1.0]
750	[546:1.0,568:1.0,515:1.0,514:1.0,508:1.0,1047:1.0,315:1.0,483:1.0,628:1.0,479:1.0]
751	[1028:1.0,1047:1.0,1016:1.0,895:1.0,879:1.0,845:1.0,781:1.0,763:1.0,750:1.0,747:1.0]
752	[1025:1.0,1022:1.0,1016:1.0,23:1.0,990:1.0,989:1.0,988:1.0,984:1.0,980:1.0,66:1.0]
753	[550:1.0,9:1.0,546:1.0,11:1.0,25:1.0,526:1.0,521:1.0,514:1.0,511:1.0,508:1.0]
754	[880:1.0,546:1.0,288:1.0,11:1.0,25:1.0,527:1.0,31:1.0,515:1.0,508:1.0,496:1.0]
755	[751:1.0,546:1.0,11:1.0,531:1.0,515:1.0,508:1.0,315:1.0,483:1.0,628:1.0,475:1.0]
756	[1047:1.0,1028:1.0,1016:1.0,1007:1.0,928:1.0,879:1.0,845:1.0,780:1.0,763:1.0,756:1.0]
757	[1028:1.0,928:1.0,879:1.0,845:1.0,831:1.0,763:1.0,750:1.0,748:1.0,739:1.0,735:1.0]
758	[1028:1.0,1014:1.0,1011:1.0,1009:1.0,993:1.0,988:1.0,948:1.0,930:1.0,928:1.0,926:1.0]
759	[9:1.0,546:1.0,288:1.0,11:1.0,25:1.0,527:1.0,515:1.0,508:1.0,496:1.0,1047:1.0]
760	[550:1.0,9:1.0,546:1.0,11:1.0,527:1.0,514:1.0,508:1.0,496:1.0,1047:1.0,485:1.0]
761	[1047:1.0,1028:1.0,1025:1.0,1016:1.0,934:1.0,928:1.0,926:1.0,895:1.0,887:1.0,881:1.0]
762	[546:1.0,288:1.0,11:1.0,25:1.0,531:1.0,527:1.0,514:1.0,508:1.0,496:1.0,1047:1.0]
763	[8:1.0,1028:1.0,866:1.0,815:1.0,792:1.0,763:1.0,756:1.0,751:1.0,748:1.0,746:1.0]
764	[550:1.0,546:1.0,288:1.0,38:1.0,515:1.0,514:1.0,511:1.0,508:1.0,501:1.0,498:1.0]
765	[748:1.0,546:1.0,288:1.0,11:1.0,531:1.0,529:1.0,582:1.0,527:1.0,515:1.0,514:1.0]
766	[2:1.0,554:1.0,9:1.0,546:1.0,11:1.0,25:1.0,529:1.0,528:1.0,525:1.0,517:1.0]
767	[550:1.0,9:1.0,546:1.0,11:1.0,25:1.0,529:1.0,528:1.0,527:1.0,526:1.0,523:1.0]
768	[546:1.0,11:1.0,527:1.0,515:1.0,508:1.0,496:1.0,1047:1.0,71:1.0,483:1.0,472:1.0]
769	[550:1.0,9:1.0,288:1.0,11:1.0,508:1.0,496:1.0,1047:1.0,71:1.0,483:1.0,475:1.0]
770	[9:1.0,11:1.0,531:1.0,527:1.0,515:1.0,514:1.0,496:1.0,1047:1.0,71:1.0,483:1.0]
771	[2:1.0,550:1.0,9:1.0,546:1.0,288:1.0,11:1.0,25:1.0,531:1.0,527:1.0,31:1.0]
772	[754:1.0,546:1.0,568:1.0,515:1.0,508:1.0,71:1.0,483:1.0,475:1.0,472:1.0,471:1.0]
773	[8:1.0,1028:1.0,1016:1.0,1012:1.0,1011:1.0,1010:1.0,1009:1.0,1008:1.0,58:1.0,923:1.0]
774	[1012:1.0,1011:1.0,930:1.0,928:1.0,919:1.0,879:1.0,845:1.0,820:1.0,780:1.0,768:1.0]
775	[754:1.0,546:1.0,288:1.0,11:1.0,531:1.0,515:1.0,508:1.0,71:1.0,483:1.0,479:1.0]
776	[1047:1.0,1028:1.0,877:1.0,859:1.0,854:1.0,853:1.0,845:1.0,820:1.0,800:1.0,774:1.0]
777	[546:1.0,566:1.0,568:1.0,25:1.0,31:1.0,515:1.0,514:1.0,511:1.0,508:1.0,498:1.0]
778	[2:1.0,9:1.0,546:1.0,527:1.0,31:1.0,514:1.0,511:1.0,508:1.0,501:1.0,498:1.0]
779	[748:1.0,550:1.0,9:1.0,546:1.0,568:1.0,582:1.0,527:1.0,515:1.0,508:1.0,496:1.0]
780	[550:1.0,9:1.0,546:1.0,11:1.0,25:1.0,527:1.0,523:1.0,521:1.0,514:1.0,504:1.0]
781	[550:1.0,9:1.0,546:1.0,11:1.0,527:1.0,31:1.0,521:1.0,515:1.0,514:1.0,511:1.0]
782	[1434:1.0,1359:1.0,1353:1.0,1346:1.0,1338:1.0,1334:1.0,1318:1.0,1317:1.0,1265:1.0,1234:1.0]
783	[748:1.0,546:1.0,11:1.0,515:1.0,508:1.0,483:1.0,628:1.0,476:1.0,475:1.0,472:1.0]
784	[546:1.0,288:1.0,11:1.0,515:1.0,508:1.0,483:1.0,628:1.0,475:1.0,472:1.0,471:1.0]
785	[550:1.0,546:1.0,566:1.0,11:1.0,527:1.0,526:1.0,523:1.0,588:1.0,515:1.0,514:1.0]
786	[2:1.0,550:1.0,288:1.0,11:1.0,25:1.0,527:1.0,526:1.0,523:1.0,521:1.0,515:1.0]
787	[1394:1.0,1025:1.0,1022:1.0,1016:1.0,995:1.0,23:1.0,990:1.0,989:1.0,988:1.0,984:1.0]
788	[1047:1.0,1028:1.0,1016:1.0,930:1.0,928:1.0,895:1.0,866:1.0,845:1.0,831:1.0,763:1.0]
789	[678:1.0,546:1.0,568:1.0,582:1.0,527:1.0,515:1.0,514:1.0,496:1.0,71:1.0,483:1.0]
790	[988:1.0,879:1.0,866:1.0,845:1.0,831:1.0,820:1.0,815:1.0,780:1.0,756:1.0,751:1.0]
791	[682:1.0,546:1.0,568:1.0,582:1.0,515:1.0,508:1.0,496:1.0,483:1.0,628:1.0,479:1.0]
792	[1028:1.0,550:1.0,288:1.0,11:1.0,845:1.0,31:1.0,515:1.0,496:1.0,71:1.0,483:1.0]
793	[831:1.0,550:1.0,546:1.0,544:1.0,11:1.0,531:1.0,515:1.0,496:1.0,1047:1.0,71:1.0]
794	[9:1.0,546:1.0,288:1.0,11:1.0,25:1.0,531:1.0,527:1.0,523:1.0,511:1.0,508:1.0]
795	[1028:1.0,1016:1.0,866:1.0,845:1.0,763:1.0,748:1.0,735:1.0,732:1.0,692:1.0,685:1.0]
796	[7:1.0,1028:1.0,1016:1.0,51:1.0,930:1.0,926:1.0,895:1.0,887:1.0,876:1.0,875:1.0]
797	[550:1.0,9:1.0,546:1.0,288:1.0,11:1.0,515:1.0,508:1.0,496:1.0,1047:1.0,71:1.0]
798	[1033:1.0,8:1.0,1028:1.0,4:1.0,7:1.0,1016:1.0,1012:1.0,80:1.0,100:1.0,934:1.0]
799	[9:1.0,546:1.0,288:1.0,11:1.0,25:1.0,527:1.0,523:1.0,521:1.0,515:1.0,514:1.0]
800	[748:1.0,9:1.0,546:1.0,288:1.0,11:1.0,582:1.0,527:1.0,515:1.0,508:1.0,496:1.0]
801	[879:1.0,546:1.0,11:1.0,508:1.0,71:1.0,475:1.0,472:1.0,471:1.0,876:1.0,1025:1.0]
802	[1028:1.0,1016:1.0,989:1.0,988:1.0,895:1.0,890:1.0,887:1.0,881:1.0,880:1.0,878:1.0]
803	[882:1.0,546:1.0,11:1.0,527:1.0,288:1.0,515:1.0,514:1.0,511:1.0,508:1.0,71:1.0]
804	[8:1.0,895:1.0,879:1.0,876:1.0,866:1.0,845:1.0,833:1.0,790:1.0,781:1.0,751:1.0]
805	[1028:1.0,1047:1.0,1016:1.0,1012:1.0,1011:1.0,930:1.0,926:1.0,919:1.0,898:1.0,895:1.0]
806	[1047:1.0,1028:1.0,1011:1.0,919:1.0,895:1.0,887:1.0,845:1.0,763:1.0,762:1.0,751:1.0]
807	[1028:1.0,926:1.0,879:1.0,855:1.0,845:1.0,763:1.0,756:1.0,755:1.0,750:1.0,746:1.0]
808	[546:1.0,11:1.0,515:1.0,508:1.0,483:1.0,628:1.0,475:1.0,471:1.0,322:1.0,455:1.0]
809	[546:1.0,288:1.0,11:1.0,508:1.0,71:1.0,483:1.0,475:1.0,471:1.0,98:1.0,121:1.0]
810	[751:1.0,546:1.0,11:1.0,515:1.0,508:1.0,315:1.0,483:1.0,628:1.0,475:1.0,471:1.0]
811	[9:1.0,546:1.0,568:1.0,288:1.0,515:1.0,508:1.0,628:1.0,476:1.0,475:1.0,472:1.0]
812	[546:1.0,568:1.0,527:1.0,515:1.0,508:1.0,315:1.0,483:1.0,628:1.0,475:1.0,875:1.0]
813	[895:1.0,546:1.0,566:1.0,11:1.0,288:1.0,515:1.0,508:1.0,71:1.0,483:1.0,476:1.0]
814	[748:1.0,550:1.0,546:1.0,566:1.0,568:1.0,569:1.0,527:1.0,31:1.0,523:1.0,515:1.0]
815	[1047:1.0,1028:1.0,1016:1.0,845:1.0,763:1.0,756:1.0,755:1.0,751:1.0,750:1.0,748:1.0]
816	[748:1.0,546:1.0,568:1.0,508:1.0,71:1.0,475:1.0,472:1.0,471:1.0,1016:1.0,455:1.0]
817	[689:1.0,550:1.0,11:1.0,31:1.0,508:1.0,496:1.0,1047:1.0,71:1.0,483:1.0,476:1.0]
818	[9:1.0,546:1.0,568:1.0,531:1.0,515:1.0,508:1.0,71:1.0,483:1.0,475:1.0,471:1.0]
819	[550:1.0,9:1.0,546:1.0,288:1.0,11:1.0,25:1.0,527:1.0,515:1.0,514:1.0,511:1.0]
820	[568:1.0,546:1.0,515:1.0,508:1.0,71:1.0,483:1.0,475:1.0,472:1.0,471:1.0,322:1.0]
821	[550:1.0,9:1.0,546:1.0,288:1.0,11:1.0,25:1.0,527:1.0,526:1.0,523:1.0,521:1.0]
822	[742:1.0,2:1.0,550:1.0,546:1.0,566:1.0,568:1.0,508:1.0,501:1.0,496:1.0,1047:1.0]
823	[1047:1.0,1028:1.0,845:1.0,763:1.0,756:1.0,748:1.0,746:1.0,705:1.0,690:1.0,685:1.0]
824	[879:1.0,546:1.0,11:1.0,515:1.0,508:1.0,71:1.0,483:1.0,475:1.0,472:1.0,471:1.0]
825	[1014:1.0,1012:1.0,934:1.0,895:1.0,879:1.0,845:1.0,826:1.0,820:1.0,815:1.0,763:1.0]
826	[895:1.0,879:1.0,873:1.0,845:1.0,751:1.0,750:1.0,746:1.0,742:1.0,739:1.0,732:1.0]
827	[678:1.0,546:1.0,568:1.0,515:1.0,508:1.0,71:1.0,483:1.0,475:1.0,472:1.0,471:1.0]
828	[1018:1.0,1016:1.0,1011:1.0,1010:1.0,1004:1.0,995:1.0,23:1.0,62:1.0,966:1.0,950:1.0]
829	[9:1.0,546:1.0,288:1.0,11:1.0,25:1.0,531:1.0,528:1.0,527:1.0,523:1.0,521:1.0]
830	[9:1.0,546:1.0,11:1.0,527:1.0,526:1.0,521:1.0,520:1.0,519:1.0,515:1.0,514:1.0]
831	[879:1.0,550:1.0,9:1.0,546:1.0,11:1.0,25:1.0,527:1.0,515:1.0,514:1.0,511:1.0]
832	[880:1.0,546:1.0,568:1.0,508:1.0,496:1.0,483:1.0,628:1.0,476:1.0,475:1.0,472:1.0]
833	[8:1.0,1028:1.0,1011:1.0,1007:1.0,926:1.0,900:1.0,896:1.0,895:1.0,148:1.0,887:1.0]
834	[748:1.0,546:1.0,568:1.0,582:1.0,527:1.0,508:1.0,496:1.0,1047:1.0,483:1.0,476:1.0]
835	[1028:1.0,1016:1.0,895:1.0,879:1.0,845:1.0,763:1.0,756:1.0,751:1.0,750:1.0,748:1.0]
836	[9:1.0,546:1.0,11:1.0,25:1.0,529:1.0,528:1.0,527:1.0,526:1.0,521:1.0,520:1.0]
837	[751:1.0,546:1.0,566:1.0,568:1.0,288:1.0,531:1.0,582:1.0,527:1.0,515:1.0,514:1.0]
838	[1028:1.0,1016:1.0,898:1.0,895:1.0,879:1.0,845:1.0,763:1.0,756:1.0,751:1.0,742:1.0]
839	[9:1.0,546:1.0,288:1.0,11:1.0,531:1.0,527:1.0,515:1.0,514:1.0,25:1.0,496:1.0]
840	[1016:1.0,895:1.0,887:1.0,879:1.0,866:1.0,792:1.0,763:1.0,751:1.0,748:1.0,744:1.0]
841	[895:1.0,546:1.0,566:1.0,568:1.0,515:1.0,508:1.0,71:1.0,483:1.0,475:1.0,472:1.0]
842	[882:1.0,550:1.0,9:1.0,546:1.0,538:1.0,11:1.0,25:1.0,515:1.0,514:1.0,508:1.0]
843	[1028:1.0,1016:1.0,879:1.0,845:1.0,756:1.0,755:1.0,751:1.0,750:1.0,748:1.0,742:1.0]
844	[550:1.0,9:1.0,546:1.0,191:1.0,288:1.0,11:1.0,25:1.0,527:1.0,31:1.0,515:1.0]
845	[1384:1.0,1025:1.0,1024:1.0,23:1.0,1011:1.0,995:1.0,991:1.0,990:1.0,989:1.0,984:1.0]
846	[1028:1.0,62:1.0,946:1.0,879:1.0,845:1.0,790:1.0,783:1.0,781:1.0,763:1.0,750:1.0]
847	[1028:1.0,1016:1.0,1014:1.0,988:1.0,919:1.0,879:1.0,876:1.0,866:1.0,845:1.0,831:1.0]
848	[1047:1.0,1016:1.0,895:1.0,866:1.0,792:1.0,763:1.0,750:1.0,748:1.0,742:1.0,735:1.0]
849	[742:1.0,550:1.0,9:1.0,546:1.0,11:1.0,527:1.0,514:1.0,511:1.0,508:1.0,501:1.0]
850	[732:1.0,550:1.0,546:1.0,25:1.0,527:1.0,526:1.0,523:1.0,588:1.0,520:1.0,514:1.0]
851	[1035:1.0,1033:1.0,1017:1.0,1012:1.0,1011:1.0,994:1.0,993:1.0,990:1.0,989:1.0,988:1.0]
852	[845:1.0,2:1.0,550:1.0,9:1.0,288:1.0,11:1.0,527:1.0,523:1.0,514:1.0,508:1.0]
853	[546:1.0,568:1.0,515:1.0,508:1.0,71:1.0,315:1.0,483:1.0,319:1.0,475:1.0,472:1.0]
854	[1012:1.0,1009:1.0,38:1.0,926:1.0,895:1.0,879:1.0,866:1.0,845:1.0,831:1.0,763:1.0]
855	[742:1.0,9:1.0,546:1.0,11:1.0,528:1.0,527:1.0,523:1.0,517:1.0,515:1.0,514:1.0]
856	[568:1.0,546:1.0,288:1.0,515:1.0,508:1.0,71:1.0,483:1.0,475:1.0,471:1.0,1016:1.0]
857	[748:1.0,546:1.0,288:1.0,11:1.0,25:1.0,531:1.0,515:1.0,514:1.0,508:1.0,496:1.0]
858	[546:1.0,288:1.0,11:1.0,527:1.0,508:1.0,496:1.0,71:1.0,483:1.0,480:1.0,475:1.0]
859	[1028:1.0,546:1.0,289:1.0,527:1.0,11:1.0,515:1.0,508:1.0,496:1.0,1047:1.0,71:1.0]
860	[8:1.0,1028:1.0,1016:1.0,926:1.0,902:1.0,898:1.0,896:1.0,895:1.0,887:1.0,882:1.0]
861	[9:1.0,546:1.0,288:1.0,11:1.0,25:1.0,528:1.0,527:1.0,515:1.0,514:1.0,511:1.0]
862	[1047:1.0,1028:1.0,1016:1.0,926:1.0,879:1.0,826:1.0,815:1.0,763:1.0,762:1.0,756:1.0]
863	[1394:1.0,1025:1.0,1016:1.0,995:1.0,23:1.0,991:1.0,989:1.0,988:1.0,984:1.0,66:1.0]
864	[1028:1.0,928:1.0,926:1.0,895:1.0,879:1.0,866:1.0,845:1.0,815:1.0,763:1.0,762:1.0]
865	[550:1.0,9:1.0,288:1.0,11:1.0,25:1.0,527:1.0,31:1.0,515:1.0,508:1.0,496:1.0]
866	[546:1.0,11:1.0,25:1.0,531:1.0,529:1.0,515:1.0,514:1.0,511:1.0,508:1.0,483:1.0]
867	[2:1.0,550:1.0,546:1.0,288:1.0,25:1.0,527:1.0,526:1.0,523:1.0,521:1.0,298:1.0]
868	[1047:1.0,1016:1.0,926:1.0,879:1.0,845:1.0,763:1.0,756:1.0,751:1.0,748:1.0,742:1.0]
869	[689:1.0,546:1.0,289:1.0,11:1.0,527:1.0,514:1.0,511:1.0,508:1.0,496:1.0,1048:1.0]
870	[1028:1.0,1047:1.0,1016:1.0,1012:1.0,895:1.0,879:1.0,845:1.0,756:1.0,751:1.0,750:1.0]
871	[1432:1.0,1025:1.0,1017:1.0,1016:1.0,1012:1.0,33:1.0,995:1.0,23:1.0,991:1.0,990:1.0]
872	[550:1.0,9:1.0,11:1.0,31:1.0,38:1.0,42:1.0,508:1.0,496:1.0,62:1.0,71:1.0]
873	[751:1.0,546:1.0,11:1.0,515:1.0,508:1.0,71:1.0,483:1.0,475:1.0,471:1.0,322:1.0]
874	[750:1.0,9:1.0,546:1.0,288:1.0,11:1.0,531:1.0,582:1.0,527:1.0,523:1.0,515:1.0]
875	[879:1.0,873:1.0,845:1.0,751:1.0,750:1.0,748:1.0,742:1.0,739:1.0,735:1.0,732:1.0]
876	[732:1.0,546:1.0,566:1.0,11:1.0,582:1.0,521:1.0,515:1.0,514:1.0,508:1.0,498:1.0]
877	[2:1.0,550:1.0,9:1.0,546:1.0,11:1.0,25:1.0,529:1.0,527:1.0,523:1.0,514:1.0]
878	[1028:1.0,879:1.0,866:1.0,845:1.0,792:1.0,756:1.0,751:1.0,750:1.0,748:1.0,747:1.0]
879	[550:1.0,546:1.0,566:1.0,288:1.0,11:1.0,527:1.0,515:1.0,508:1.0,496:1.0,483:1.0]
880	[1028:1.0,1025:1.0,1011:1.0,990:1.0,989:1.0,988:1.0,898:1.0,895:1.0,887:1.0,886:1.0]
881	[1047:1.0,1016:1.0,988:1.0,946:1.0,930:1.0,928:1.0,926:1.0,879:1.0,866:1.0,845:1.0]
882	[1028:1.0,1016:1.0,930:1.0,928:1.0,926:1.0,866:1.0,845:1.0,831:1.0,826:1.0,763:1.0]
883	[1016:1.0,1011:1.0,995:1.0,988:1.0,937:1.0,923:1.0,909:1.0,908:1.0,904:1.0,898:1.0]
884	[546:1.0,191:1.0,288:1.0,11:1.0,25:1.0,531:1.0,527:1.0,523:1.0,514:1.0,511:1.0]
885	[2:1.0,554:1.0,550:1.0,9:1.0,546:1.0,288:1.0,11:1.0,527:1.0,31:1.0,515:1.0]
886	[8:1.0,1028:1.0,1016:1.0,1011:1.0,866:1.0,864:1.0,845:1.0,831:1.0,820:1.0,815:1.0]
887	[21:1.0,1017:1.0,1016:1.0,1014:1.0,988:1.0,930:1.0,887:1.0,866:1.0,864:1.0,847:1.0]
888	[739:1.0,9:1.0,546:1.0,288:1.0,11:1.0,25:1.0,527:1.0,523:1.0,521:1.0,515:1.0]
889	[1028:1.0,1012:1.0,895:1.0,887:1.0,880:1.0,877:1.0,876:1.0,873:1.0,872:1.0,864:1.0]
890	[2:1.0,550:1.0,9:1.0,546:1.0,11:1.0,25:1.0,528:1.0,526:1.0,519:1.0,517:1.0]
891	[550:1.0,9:1.0,288:1.0,11:1.0,527:1.0,31:1.0,515:1.0,514:1.0,508:1.0,496:1.0]
892	[1047:1.0,1028:1.0,926:1.0,879:1.0,831:1.0,756:1.0,748:1.0,746:1.0,742:1.0,735:1.0]
893	[2:1.0,554:1.0,550:1.0,9:1.0,546:1.0,25:1.0,527:1.0,31:1.0,508:1.0,496:1.0]
894	[8:1.0,1028:1.0,1025:1.0,1022:1.0,1021:1.0,1017:1.0,1014:1.0,1012:1.0,1011:1.0,1008:1.0]
895	[1028:1.0,546:1.0,566:1.0,288:1.0,11:1.0,582:1.0,508:1.0,496:1.0,1047:1.0,483:1.0]
896	[1016:1.0,1005:1.0,971:1.0,939:1.0,923:1.0,921:1.0,919:1.0,906:1.0,904:1.0,903:1.0]
897	[1016:1.0,988:1.0,934:1.0,930:1.0,879:1.0,845:1.0,831:1.0,820:1.0,815:1.0,756:1.0]
898	[546:1.0,11:1.0,515:1.0,508:1.0,71:1.0,483:1.0,479:1.0,475:1.0,471:1.0,455:1.0]
899	[554:1.0,550:1.0,9:1.0,288:1.0,11:1.0,531:1.0,526:1.0,523:1.0,514:1.0,511:1.0]
900	[550:1.0,546:1.0,11:1.0,25:1.0,528:1.0,527:1.0,526:1.0,525:1.0,523:1.0,521:1.0]
901	[1028:1.0,1016:1.0,1014:1.0,1012:1.0,1009:1.0,1007:1.0,936:1.0,935:1.0,930:1.0,926:1.0]
902	[550:1.0,9:1.0,546:1.0,288:1.0,11:1.0,25:1.0,527:1.0,523:1.0,514:1.0,511:1.0]
903	[1028:1.0,1047:1.0,1016:1.0,1014:1.0,1012:1.0,1011:1.0,926:1.0,919:1.0,879:1.0,866:1.0]
904	[2:1.0,550:1.0,546:1.0,11:1.0,25:1.0,527:1.0,31:1.0,514:1.0,511:1.0,509:1.0]
905	[9:1.0,546:1.0,568:1.0,288:1.0,25:1.0,588:1.0,515:1.0,514:1.0,496:1.0,1047:1.0]
906	[1028:1.0,546:1.0,568:1.0,288:1.0,582:1.0,588:1.0,515:1.0,514:1.0,508:1.0,496:1.0]
907	[1008:1.0,926:1.0,895:1.0,879:1.0,866:1.0,845:1.0,831:1.0,751:1.0,750:1.0,747:1.0]
908	[550:1.0,9:1.0,546:1.0,11:1.0,25:1.0,526:1.0,523:1.0,521:1.0,520:1.0,514:1.0]
909	[879:1.0,546:1.0,288:1.0,11:1.0,25:1.0,527:1.0,517:1.0,515:1.0,514:1.0,511:1.0]
910	[550:1.0,546:1.0,568:1.0,527:1.0,526:1.0,523:1.0,588:1.0,520:1.0,515:1.0,514:1.0]
911	[554:1.0,2:1.0,550:1.0,9:1.0,546:1.0,11:1.0,25:1.0,529:1.0,528:1.0,527:1.0]
912	[739:1.0,550:1.0,9:1.0,546:1.0,288:1.0,11:1.0,528:1.0,527:1.0,526:1.0,521:1.0]
913	[1028:1.0,895:1.0,879:1.0,845:1.0,751:1.0,748:1.0,739:1.0,735:1.0,732:1.0,705:1.0]
914	[1:1.0,553:1.0,550:1.0,9:1.0,546:1.0,544:1.0,11:1.0,25:1.0,527:1.0,31:1.0]
915	[748:1.0,546:1.0,568:1.0,515:1.0,508:1.0,71:1.0,483:1.0,479:1.0,475:1.0,471:1.0]
916	[8:1.0,1028:1.0,1016:1.0,1012:1.0,59:1.0,62:1.0,928:1.0,926:1.0,879:1.0,845:1.0]
917	[1028:1.0,546:1.0,568:1.0,288:1.0,582:1.0,515:1.0,508:1.0,496:1.0,1047:1.0,71:1.0]
918	[887:1.0,880:1.0,879:1.0,874:1.0,845:1.0,813:1.0,751:1.0,750:1.0,748:1.0,742:1.0]
919	[1028:1.0,1016:1.0,1009:1.0,47:1.0,990:1.0,938:1.0,934:1.0,930:1.0,928:1.0,926:1.0]
920	[546:1.0,568:1.0,515:1.0,508:1.0,71:1.0,483:1.0,475:1.0,471:1.0,323:1.0,655:1.0]
921	[1014:1.0,949:1.0,930:1.0,928:1.0,926:1.0,895:1.0,879:1.0,866:1.0,864:1.0,831:1.0]
922	[2:1.0,554:1.0,9:1.0,546:1.0,25:1.0,527:1.0,31:1.0,515:1.0,514:1.0,511:1.0]
923	[845:1.0,554:1.0,550:1.0,11:1.0,527:1.0,31:1.0,38:1.0,515:1.0,508:1.0,496:1.0]
924	[879:1.0,845:1.0,751:1.0,750:1.0,748:1.0,739:1.0,732:1.0,693:1.0,692:1.0,690:1.0]
925	[1:1.0,879:1.0,4:1.0,551:1.0,550:1.0,9:1.0,546:1.0,12:1.0,11:1.0,527:1.0]
926	[748:1.0,546:1.0,568:1.0,515:1.0,508:1.0,71:1.0,483:1.0,475:1.0,471:1.0,98:1.0]
927	[1028:1.0,926:1.0,879:1.0,845:1.0,831:1.0,790:1.0,781:1.0,762:1.0,751:1.0,748:1.0]
928	[880:1.0,546:1.0,11:1.0,25:1.0,527:1.0,523:1.0,515:1.0,514:1.0,511:1.0,508:1.0]
929	[742:1.0,550:1.0,9:1.0,546:1.0,11:1.0,527:1.0,526:1.0,523:1.0,588:1.0,520:1.0]
930	[550:1.0,9:1.0,546:1.0,25:1.0,531:1.0,529:1.0,527:1.0,11:1.0,515:1.0,514:1.0]
931	[550:1.0,9:1.0,288:1.0,11:1.0,25:1.0,531:1.0,527:1.0,514:1.0,511:1.0,498:1.0]
932	[1028:1.0,1047:1.0,845:1.0,792:1.0,763:1.0,756:1.0,473:1.0,748:1.0,746:1.0,744:1.0]
933	[1016:1.0,845:1.0,820:1.0,815:1.0,756:1.0,748:1.0,742:1.0,739:1.0,722:1.0,717:1.0]
934	[1028:1.0,1021:1.0,1016:1.0,887:1.0,879:1.0,845:1.0,763:1.0,756:1.0,751:1.0,750:1.0]
935	[748:1.0,550:1.0,566:1.0,568:1.0,288:1.0,515:1.0,508:1.0,496:1.0,1047:1.0,71:1.0]
936	[8:1.0,1028:1.0,1017:1.0,1012:1.0,1010:1.0,950:1.0,98:1.0,924:1.0,132:1.0,895:1.0]
937	[546:1.0,288:1.0,11:1.0,25:1.0,531:1.0,527:1.0,514:1.0,511:1.0,498:1.0,496:1.0]
938	[550:1.0,283:1.0,11:1.0,527:1.0,31:1.0,38:1.0,515:1.0,496:1.0,71:1.0,483:1.0]
939	[879:1.0,550:1.0,288:1.0,11:1.0,25:1.0,527:1.0,31:1.0,38:1.0,515:1.0,496:1.0]
940	[2:1.0,550:1.0,546:1.0,11:1.0,25:1.0,531:1.0,528:1.0,31:1.0,523:1.0,520:1.0]
941	[568:1.0,546:1.0,566:1.0,288:1.0,508:1.0,496:1.0,1047:1.0,71:1.0,483:1.0,479:1.0]
942	[895:1.0,550:1.0,9:1.0,546:1.0,11:1.0,25:1.0,527:1.0,526:1.0,523:1.0,521:1.0]
943	[1016:1.0,926:1.0,866:1.0,845:1.0,820:1.0,781:1.0,780:1.0,762:1.0,748:1.0,747:1.0]
